# Date,Total,Phase 1,Phase 2,Phase 3,Phase 4,Phase 5
# Phase 1/5: Generate ancillary data to be used by knowledge extractors
# Phase 2/5: Decompose index into sub-indices
# Phase 3/5: Create new build
# Phase 4/5: Attach front page
# Phase 5/5: Schedule upload onto Alexandria
# Time in ms
2020-11-30T09:56:49+01:00,181389,89524,3200,75325,13338,6475
2020-11-30T10:04:17+01:00,174546,87070,2819,72461,12194,4348
2020-11-30T10:26:46+01:00,178342,89945,3458,71701,13236,5661
2020-11-30T10:41:17+01:00,177351,92668,3263,70985,10434,5857
2020-11-30T11:10:39+01:00,189245,102454,2728,71664,12398,12688
2020-11-30T11:43:31+01:00,191921,106488,26,71419,13986,8526
2020-11-30T12:02:54+01:00,158980,83459,30,65691,9799,15308
2020-11-30T12:15:48+01:00,166956,89741,18,66712,10483,5490
2020-11-30T13:13:43+01:00,170100,91645,37,68167,10249,2668
2020-11-30T18:11:32+01:00,133219,71855,24,51004,10335,5255
2020-11-30T19:00:20+01:00,204222,91999,4,103243,8974,3394
2020-11-30T19:16:32+01:00,123634,65089,1910,48213,8421,4106
2020-12-01T09:52:35+01:00,526805,358273,1955,158974,7602,4152
2020-12-01T10:15:18+01:00,141072,71356,22,58685,11008,3601
2020-12-01T10:34:49+01:00,188950,70505,3689,105005,9751,3119
2020-12-01T12:01:39+01:00,196347,63532,1898,120018,10898,3908
2020-12-01T12:46:04+01:00,212669,84646,2997,115800,9224,3423
2020-12-01T15:52:39+01:00,206031,86486,1,108298,11244,4092
2020-12-01T16:41:08+01:00,216447,93099,1957,106089,15300,4935
2020-12-02T14:22:16+01:00,187534,82494,8,95227,9804,17633
2020-12-02T15:59:31+01:00,227501,104219,1650,109796,11835,2119
2020-12-02T16:43:40+01:00,186757,79371,2,100241,7142,3869
2020-12-02T16:50:18+01:00,181678,65159,3425,104840,8252,4764
2020-12-03T14:27:25+01:00,123183,66003,2,46816,10361,10195
2020-12-04T11:13:40+01:00,176200,68354,6,98475,9364,2943
2020-12-04T11:16:40+01:00,133841,71043,2318,49708,10771,5061
2020-12-04T11:56:25+01:00,220701,71109,4410,129969,15211,2349
2020-12-04T14:21:15+01:00,130138,72828,10,49391,7907,4285
2020-12-04T15:24:41+01:00,194193,82097,15,99543,12535,3815
2020-12-07T10:58:05+01:00,190699,78706,1912,97405,12675,3116
2020-12-07T14:05:45+01:00,128754,72904,2310,45766,7772,3836
2020-12-07T16:03:09+01:00,132422,69086,2704,52168,8463,2422
2020-12-07T16:47:21+01:00,120078,58481,6,53254,8336,4805
2020-12-07T17:12:46+01:00,180068,69205,2280,99656,8926,2502
2020-12-08T08:48:08+01:00,116945,60188,2229,45675,8851,16578
2020-12-08T08:55:36+01:00,127016,63675,3,53652,9684,2775
2020-12-08T10:25:13+01:00,116472,58666,10,47335,10460,7929
2020-12-08T10:44:38+01:00,119604,58410,1,51361,9831,3226
2020-12-08T11:40:50+01:00,217483,72682,2595,129628,12577,2918
2020-12-08T11:55:10+01:00,139140,72622,6,55638,10873,10485
2020-12-08T12:12:02+01:00,138026,66308,4,61433,10280,4065
2020-12-08T13:22:59+01:00,138826,72357,4381,51410,10676,8611
2020-12-08T13:39:43+01:00,212361,83552,13,120042,8753,4641
2020-12-08T14:23:54+01:00,149579,73678,3153,58283,14464,10728
2020-12-08T15:20:29+01:00,155261,84400,2779,57364,10717,10524
2020-12-08T15:59:09+01:00,146441,74076,10,59275,13077,7276
2020-12-08T16:17:11+01:00,142584,79409,11,54515,8647,11210
2020-12-08T16:25:58+01:00,138787,77121,2366,51806,7492,6538
2020-12-08T16:46:10+01:00,135626,69714,6,53253,12652,5723
2020-12-09T11:49:22+01:00,135698,76077,2788,47434,9397,16247
2020-12-09T14:19:23+01:00,192102,76284,2062,103028,10727,4203
2020-12-09T16:05:51+01:00,156529,88509,3257,54139,10623,8749
2020-12-09T16:28:42+01:00,150525,82522,11,59794,8196,4424
2020-12-10T11:58:54+01:00,225034,94150,10,120064,10808,19137
2020-12-10T12:16:35+01:00,121316,65137,1,46834,9343,2325
2020-12-10T12:21:54+01:00,137095,73022,28,53707,10337,4419
2020-12-10T12:34:50+01:00,114831,59744,28,46263,8795,3795
2020-12-10T13:03:37+01:00,152414,82924,5,59364,10119,2596
2020-12-10T13:54:25+01:00,212006,86550,1900,113387,10167,4875
2020-12-10T14:04:22+01:00,142515,68892,2662,59295,11665,4833
2020-12-10T14:34:58+01:00,144161,68300,4,64191,11664,3279
2020-12-10T16:15:09+01:00,190127,96468,3333,76454,13870,4713
2020-12-10T17:11:39+01:00,162646,75606,4,73388,13646,2836
2020-12-11T09:28:24+01:00,140756,73496,6,56977,10275,7423
2020-12-11T15:03:14+01:00,123491,58978,14,52154,12343,7815
2020-12-11T15:09:31+01:00,116600,58038,15,48291,10254,1860
2020-12-11T17:10:41+01:00,135712,71173,1,54844,9693,4511
2020-12-14T13:20:23+01:00,252015,79219,969,162477,9349,18470
2020-12-14T14:14:15+01:00,124992,63225,12,52321,9432,1999
2020-12-14T14:46:48+01:00,267394,84150,815,167985,14442,4948
2020-12-14T15:01:20+01:00,224720,85888,846,126332,11654,4098
2020-12-14T15:18:31+01:00,280595,99343,896,169279,11075,2196
2020-12-14T15:56:51+01:00,185294,71723,696,101447,11426,4076
2020-12-14T16:25:53+01:00,219007,60755,851,136934,20465,3513
2020-12-14T18:30:17+01:00,202542,72908,1071,117454,11107,8206
2020-12-15T09:13:55+01:00,192084,64019,893,108027,19144,3116
2020-12-15T09:35:04+01:00,160585,85600,17,64617,10350,4823
2020-12-15T09:51:12+01:00,207343,89320,754,107781,9487,4976
2020-12-15T10:38:44+01:00,204309,77503,1004,114911,10891,2634
2020-12-15T10:46:46+01:00,199309,70205,848,112591,15665,2526
2020-12-15T10:57:10+01:00,138517,68751,19,54389,15356,6826
2020-12-15T11:05:38+01:00,127132,63452,14,50373,13291,4164
2020-12-15T11:23:22+01:00,141645,68747,25,56483,16388,4633
2020-12-15T11:50:56+01:00,263943,84955,1339,167929,9719,2256
2020-12-15T12:44:20+01:00,159814,67150,11,79269,13382,9638
2020-12-15T12:55:43+01:00,192303,90441,2,92506,9353,5640
2020-12-15T14:10:33+01:00,130308,67420,11,53013,9864,9310
2020-12-15T14:43:14+01:00,145397,67150,6,64273,13966,7847
2020-12-15T14:52:42+01:00,148897,74663,11,61584,12637,3526
2020-12-15T14:56:15+01:00,139205,71032,5,55663,12503,5665
2020-12-15T15:01:13+01:00,159873,74446,7,74721,10698,3876
2020-12-15T15:04:43+01:00,159077,72699,2,71173,15203,8398
2020-12-15T15:09:10+01:00,161310,78903,8,69434,12964,4434
2020-12-15T15:36:58+01:00,139075,66039,912,60351,11772,9529
2020-12-15T15:42:26+01:00,153164,76082,5,64954,12121,3534
2020-12-15T15:46:58+01:00,129830,63338,4,53370,13116,3067
2020-12-15T15:54:27+01:00,141598,68697,4,61848,11048,5228
2020-12-15T15:58:48+01:00,158906,73976,10,73623,11295,3235
2020-12-15T16:12:27+01:00,169246,69268,11,85862,14103,5530
2020-12-15T17:09:20+01:00,131097,70535,7,48960,11594,3507
2020-12-15T17:15:16+01:00,113415,57736,2,46175,9499,2227
2020-12-15T17:20:59+01:00,155880,82755,12,60382,12730,2496
2020-12-15T17:44:51+01:00,114312,57820,2,46318,10170,2255
2020-12-15T17:55:28+01:00,143078,69946,26,60585,12519,2685
2020-12-16T09:04:02+01:00,160961,81316,13,67880,11751,3838
2020-12-16T09:11:57+01:00,148396,72272,3,64836,11284,3212
2020-12-16T09:57:23+01:00,144198,73168,6,58553,12470,3456
2020-12-16T10:06:52+01:00,139136,68928,23,59434,10748,3048
2020-12-16T10:14:00+01:00,153535,73270,26,70083,10154,3167
2020-12-16T10:17:46+01:00,156681,80061,21,64105,12493,2731
2020-12-16T10:30:35+01:00,146936,72437,17,54949,19532,6813
2020-12-16T10:56:21+01:00,152950,72576,1081,67371,11920,2556
2020-12-16T11:07:59+01:00,118583,60576,1,48628,9376,1828
2020-12-16T11:20:30+01:00,144192,70429,4,59337,14419,3325
2020-12-16T11:24:07+01:00,127742,62583,9,53856,11293,3720
2020-12-16T11:29:50+01:00,155887,75693,20,67075,13097,3181
2020-12-16T11:36:45+01:00,151752,74665,2,66414,10671,3859
2020-12-16T11:39:44+01:00,136519,66691,2,58710,11115,3706
2021-01-12T11:08:39+01:00,261698,118694,4,121535,21463,2854
2021-01-12T13:23:20+01:00,135062,65405,11,55868,13776,3168
2021-01-12T14:25:23+01:00,133699,66812,13,53654,13219,16128
2021-01-12T15:23:32+01:00,226472,79237,11,130965,16257,4715
2021-01-12T15:53:47+01:00,151632,77374,4,63230,11023,3292
2021-01-13T09:30:37+01:00,157161,87399,10,55900,13850,3904
2021-01-13T10:46:20+01:00,155557,86068,9,54330,15149,3234
2021-01-13T11:04:39+01:00,134819,73548,4,50031,11234,4687
2021-03-22T17:25:11+01:00,154168,82003,5,55485,16674,14924
2021-03-30T09:19:27+02:00,280540,174076,5,83467,22990,6700
2021-03-30T09:32:57+02:00,140267,65240,7,54342,20675,4634
2021-03-30T09:53:57+02:00,123237,61052,1,48278,13904,5236
2021-03-30T14:54:13+02:00,152942,82056,6,58841,12037,2495
2021-03-30T15:01:38+02:00,178539,93914,5,72574,12044,3502
2021-03-31T08:56:35+02:00,131824,66466,19,49555,15783,15607
2021-03-31T08:59:08+02:00,138118,72051,2,54417,11646,3952
2021-03-31T09:12:31+02:00,127521,64501,4,50621,12393,5416
2021-03-31T14:10:44+02:00,162019,81564,3,63919,16531,9359
2021-04-06T12:56:01+02:00,152935,87607,4,50975,14348,11403
2021-04-07T10:24:53+02:00,125451,63079,3,49124,13243,4284
2021-04-07T10:55:42+02:00,122892,61072,7,49912,11899,7692
2021-04-07T12:07:45+02:00,126156,61477,13,51540,13125,3201
2021-04-07T16:56:30+02:00,134566,66607,3,53875,14079,2673
2021-04-09T12:53:04+02:00,142077,74137,7,53971,13960,4732
2021-04-09T13:06:55+02:00,149205,72101,12,55836,21254,3749
2021-04-09T15:21:43+02:00,154968,85941,9,55237,13779,4982
2021-04-12T09:58:56+02:00,158428,77483,22,65519,15402,3138
2021-04-12T12:46:37+02:00,144168,75298,940,53221,14709,4844
2021-04-12T13:35:53+02:00,142864,84345,3,46290,12224,2810
2021-04-12T15:23:34+02:00,123317,63016,24,50132,10144,5428
2021-04-12T18:12:46+02:00,127750,68599,1,48104,11044,17443
2021-04-13T09:40:52+02:00,156892,77892,8,65676,13314,3464
2021-04-13T10:23:14+02:00,123705,63007,12,50331,10354,3813
2021-04-13T12:52:27+02:00,143241,70510,7,55781,16942,2533
2021-04-13T15:25:36+02:00,128075,67019,4,50068,10983,5577
2021-04-13T15:40:25+02:00,161816,92483,64,57292,11975,7503
2021-04-13T15:56:26+02:00,150962,82102,11,54716,14132,12400
2021-04-13T16:26:51+02:00,156257,74760,14,63436,18046,6271
2021-04-13T16:46:03+02:00,147837,83862,1,51340,12631,4255
2021-04-13T17:09:34+02:00,132100,64006,2,54020,14071,4485
2021-04-14T10:09:00+02:00,136831,71195,6,50495,15133,8211
2021-04-14T12:51:46+02:00,127796,70723,7,47801,9263,6202
2021-04-14T14:13:22+02:00,117939,59905,1,47608,10423,4871
2021-04-14T15:41:26+02:00,149410,73248,728,58381,17052,3648
2021-04-14T16:03:13+02:00,152182,84277,896,56043,10965,3644
2021-04-15T09:32:20+02:00,154631,86307,16,55990,12317,4980
2021-04-15T10:57:28+02:00,182135,101100,9,64807,16217,5368
2021-04-15T12:53:04+02:00,116179,60223,19,45772,10164,3645
2021-04-15T15:07:02+02:00,177652,107748,8,59016,10878,5485
2021-04-15T20:40:56+02:00,128703,63720,12,51309,13660,5587
2021-04-15T20:48:14+02:00,136661,74574,10,52071,10004,4711
2021-04-15T21:28:23+02:00,139076,73004,7,51690,14374,6404
2021-04-16T11:13:26+02:00,137906,68552,716,54207,14429,20587
2021-04-16T11:36:31+02:00,157276,88771,4,57087,11412,4488
2021-04-16T11:55:18+02:00,128783,65540,1,48649,14591,2409
2021-04-16T13:23:30+02:00,128990,70621,3,48577,9788,5133
2021-04-16T13:28:59+02:00,135194,74120,8,51965,9100,4949
2021-04-16T13:40:43+02:00,129299,65793,13,51625,11868,4581
2021-04-16T14:20:05+02:00,120445,59848,11,45827,14758,5745
2021-04-16T14:54:41+02:00,141031,74232,6,54909,11882,2124
2021-04-19T09:14:50+02:00,162230,76259,1,69226,16742,6328
2021-04-19T10:20:56+02:00,129108,69608,22,49143,10333,3814
2021-04-19T15:46:05+02:00,147278,80879,1100,53604,11693,4979
2021-04-19T16:47:06+02:00,229490,67081,15,150938,11456,4359
2021-04-19T17:10:50+02:00,182585,66614,14,105359,10596,3473
2021-04-20T09:43:57+02:00,277335,69970,8,190457,16898,3748
2021-04-20T12:33:31+02:00,139564,68413,8,58994,12147,5134
2021-04-21T13:53:23+02:00,194629,112712,2,65154,16758,18541
2021-04-21T14:31:44+02:00,151480,79291,10,60165,12013,4623
2021-04-22T08:49:53+02:00,257574,88191,7,157448,11926,8277
2021-04-22T09:01:27+02:00,132404,70845,4,47183,14370,3026
2021-04-22T10:06:17+02:00,238967,67730,2,157116,14117,5786
2021-04-22T10:20:38+02:00,125733,65903,2,48635,11191,1948
2021-04-22T13:45:44+02:00,119388,60636,11,45903,12837,7230
2021-04-22T14:22:00+02:00,129636,71410,4,47289,10931,5540
2021-04-22T14:33:32+02:00,132618,67538,1,51987,13090,8581
2021-04-22T14:41:46+02:00,168946,78647,3,73091,17204,8018
2021-04-22T16:55:57+02:00,142632,65860,1,65011,11758,4261
2021-04-23T17:14:41+02:00,165202,89736,6,60544,14914,10898
2021-08-20T10:56:45+02:00,185879,105662,660,64281,15275,12117
2021-08-23T10:10:15+02:00,153321,83510,12,55938,13860,9023
2021-08-23T11:24:56+02:00,157255,82490,11,63833,10919,6322
2021-08-23T13:10:08+02:00,149572,78780,8,57044,13739,5602
2021-08-23T13:39:35+02:00,160554,89471,8,58667,12406,6271
2021-08-23T14:07:06+02:00,158264,92714,5,52805,12739,2715
2021-08-23T14:50:23+02:00,155419,83269,11,59622,12516,2241
2021-08-23T15:04:55+02:00,162562,76270,9,70676,15605,7528
2021-08-23T15:11:41+02:00,158940,78924,3,66033,13979,6325
2021-08-23T15:59:55+02:00,151916,78291,5,59646,13973,2894
2021-08-23T16:22:58+02:00,159819,87227,11,53899,18680,9551
2021-08-23T16:37:36+02:00,142323,76985,1,53438,11897,13363
2021-08-23T17:20:55+02:00,151670,82161,8,55681,13818,6421
2021-08-24T09:56:31+02:00,152327,82110,18,56843,13354,3822
2021-08-24T13:26:09+02:00,247991,89683,5,131223,27078,8342
2021-08-24T13:43:34+02:00,146818,71259,2,58426,17129,6406
2021-08-24T15:53:47+02:00,178827,87921,7,71963,18934,9003
2021-08-24T15:58:02+02:00,146601,73538,2,57507,15553,8107
2021-08-25T10:43:43+02:00,177505,78774,6,76159,22564,7648
2021-08-25T11:11:10+02:00,181616,98295,16,65921,17384,4105
2021-08-25T11:35:17+02:00,176433,92396,3,66888,17144,4824
2021-08-25T15:51:49+02:00,234818,88339,10,132287,14180,7984
2021-08-25T18:08:51+02:00,163625,74765,43,70624,18192,6340
2021-08-26T10:54:23+02:00,259770,165411,21,77903,16433,9460
2021-08-26T12:12:13+02:00,225102,84565,5,119899,20632,9021
2021-08-26T12:40:17+02:00,182085,98405,3,66119,17557,15268
2021-08-26T14:07:23+02:00,286673,111922,7,153754,20988,9708
2021-08-27T10:49:08+02:00,248750,106564,6,123110,19068,7136
2021-08-27T11:01:15+02:00,158532,83853,5,58951,15723,7535
2021-08-27T11:42:18+02:00,191613,100409,4,75039,16160,5615
2021-08-27T11:50:02+02:00,185552,100489,20,68062,16978,5851
2021-08-27T14:22:24+02:00,200237,112021,39,68687,19489,7572
2021-08-27T14:38:45+02:00,164031,93140,8,59112,11769,6670
2021-08-27T15:24:43+02:00,184210,96490,4,72162,15552,6437
2021-08-27T15:34:49+02:00,265621,159706,36,87407,18471,6463
2021-08-30T10:42:59+02:00,178809,84660,11,69649,24487,11351
2021-08-30T10:48:21+02:00,176158,96424,13,64770,14949,6501
2021-08-30T10:53:35+02:00,143258,76254,1,56014,10987,5712
2021-08-30T11:03:42+02:00,148902,68319,3,65703,14876,5139
2021-08-30T11:08:41+02:00,153853,79047,1,65171,9632,4216
2021-08-30T11:24:19+02:00,148059,78288,7,58161,11603,5702
2021-08-30T11:29:30+02:00,154578,75421,3,67481,11672,8346
2021-08-30T11:41:12+02:00,211135,103051,4,93009,15070,9343
2021-08-30T16:17:48+02:00,168355,81510,2,63787,23054,10518
2021-08-30T16:28:59+02:00,291168,87967,7,184552,18640,6580
2021-08-30T16:35:57+02:00,196031,83646,16,98415,13953,11384
2021-08-31T12:44:47+02:00,167892,93168,13,61192,13518,5746
2021-09-01T14:05:51+02:00,345910,94108,13,237488,14299,4216
2021-09-01T14:16:33+02:00,202413,109924,23,80076,12389,3426
2021-09-01T15:43:26+02:00,192269,95986,13,82361,13908,6054
2021-09-01T16:51:46+02:00,213241,111286,20,85215,16719,6621
2021-09-01T17:45:34+02:00,153475,79569,7,61247,12651,7983
2021-09-01T17:49:25+02:00,145838,78514,13,56499,10810,3512
2021-09-01T17:56:33+02:00,135157,69819,31,53427,11879,3820
2021-09-02T09:34:08+02:00,56130981,70291,6,56016551,44131,4634
2021-09-02T09:41:25+02:00,146496,76032,14,58867,11583,3338
2021-09-02T09:49:58+02:00,135985,70986,1,54570,10426,1714
2021-09-02T09:59:34+02:00,126816,64963,15,51664,10173,2146
2021-09-02T11:58:57+02:00,159789,74951,2,72329,12506,6025
2021-09-03T13:58:55+02:00,290049,193591,5,80588,15862,10605
2021-09-03T14:19:26+02:00,191994,97612,5,78873,15503,5931
2021-09-03T14:37:40+02:00,173263,86172,14,73817,13260,2540
2021-09-03T14:59:07+02:00,166871,87702,18,66784,12365,7394
2021-09-03T15:15:36+02:00,149920,81148,3,58030,10736,6102
2021-09-03T15:59:53+02:00,163628,91655,7,60537,11428,8046
2021-09-03T16:17:25+02:00,180625,86880,13,79451,14279,14269
2021-09-06T10:52:59+02:00,193168,106302,6,70593,16266,11674
2021-09-06T14:49:20+02:00,164722,90859,2,60660,13200,4405
2021-09-07T15:55:47+02:00,164173,88761,7,60467,14937,7521
2021-09-08T10:49:48+02:00,256745,100392,6,141776,14569,5387
2021-09-08T10:58:12+02:00,197666,98855,12,86521,12276,2177
2021-09-08T11:14:07+02:00,161814,85103,5,64601,12103,3136
2021-09-08T11:19:13+02:00,158379,82585,6,64453,11333,1742
2021-09-08T11:23:40+02:00,158137,83261,9,63359,11506,2001
2021-09-08T11:31:13+02:00,166360,87736,7,66370,12246,1838
2021-09-08T11:47:39+02:00,215906,121055,5,77198,17646,3065
2021-09-08T11:53:12+02:00,237930,125007,4,95105,17813,3365
2021-09-08T12:01:46+02:00,208417,115808,9,80533,12065,2406
2021-09-08T12:47:48+02:00,191953,97148,25,82138,12641,2841
2021-09-08T12:54:15+02:00,217051,116748,7,85379,14915,3457
2021-09-08T13:22:32+02:00,232890,110969,1,97898,24019,3282
2021-09-08T13:28:12+02:00,187743,97805,4,72949,16983,2526
2021-09-08T13:36:28+02:00,170923,92906,11,66122,11883,2126
2021-09-08T14:14:03+02:00,204084,125092,18,66995,11978,4806
2021-09-08T14:22:44+02:00,133836,71159,1,52802,9872,2362
2021-09-08T14:46:00+02:00,168331,91869,2,65259,11200,2343
2021-09-08T16:08:45+02:00,169700,92422,4,65248,12025,17014
2021-09-09T13:38:10+02:00,182590,76670,7,89335,16577,7953
2021-09-09T16:00:58+02:00,190340,102477,3,70785,17074,4834
2021-09-10T09:07:27+02:00,157751,78019,6,66732,12993,2965
2021-09-10T16:51:36+02:00,176050,85904,18,70125,20001,6008
2021-09-10T16:58:37+02:00,194775,102732,8,69884,22150,2718
2021-09-10T17:05:57+02:00,166474,84870,5,62033,19565,2416
2021-09-10T17:17:50+02:00,157525,81509,17,62296,13701,3974
2021-09-10T17:22:59+02:00,146012,80775,3,54430,10802,4456
2021-09-13T11:21:22+02:00,156376,78924,1,57673,19777,8982
2021-09-13T11:27:09+02:00,157016,83627,11,61376,12001,9962
2021-09-13T12:55:58+02:00,315614,133586,5,157115,24907,10063
2021-09-13T14:15:51+02:00,225966,136301,4,70539,19120,6105
2021-09-13T15:48:26+02:00,280951,128807,23,126723,25396,12564
2021-09-14T15:06:23+02:00,236333,125845,15,92208,18264,6368
2021-09-14T15:14:22+02:00,229073,127702,2229,78495,20646,6382
2021-09-14T15:24:23+02:00,169593,84729,20,66516,18326,2805
