\relax 
\providecommand\hyper@newdestlabel[2]{}
\@writefile{toc}{\boolfalse {citerequest}\boolfalse {citetracker}\boolfalse {pagetracker}\boolfalse {backtracker}\relax }
\@writefile{lof}{\boolfalse {citerequest}\boolfalse {citetracker}\boolfalse {pagetracker}\boolfalse {backtracker}\relax }
\@writefile{lot}{\boolfalse {citerequest}\boolfalse {citetracker}\boolfalse {pagetracker}\boolfalse {backtracker}\relax }
\abx@aux@refcontext{none/global//global/global}
\providecommand\babel@aux[2]{}
\@nameuse{bbl@beforestart}
\providecommand\HyperFirstAtBeginDocument{\AtBeginDocument}
\HyperFirstAtBeginDocument{\ifx\hyper@anchor\@undefined
\global\let\oldcontentsline\contentsline
\gdef\contentsline#1#2#3#4{\oldcontentsline{#1}{#2}{#3}}
\global\let\oldnewlabel\newlabel
\gdef\newlabel#1#2{\newlabelxx{#1}#2}
\gdef\newlabelxx#1#2#3#4#5#6{\oldnewlabel{#1}{{#2}{#3}}}
\AtEndDocument{\ifx\hyper@anchor\@undefined
\let\contentsline\oldcontentsline
\let\newlabel\oldnewlabel
\fi}
\fi}
\global\let\hyper@last\relax 
\gdef\HyperFirstAtBeginDocument#1{#1}
\providecommand\HyField@AuxAddToFields[1]{}
\providecommand\HyField@AuxAddToCoFields[2]{}
\abx@aux@cite{P-IAEA03-Abder}
\abx@aux@segm{0}{0}{P-IAEA03-Abder}
\abx@aux@cite{P-AccApp11-VanDP}
\abx@aux@segm{0}{0}{P-AccApp11-VanDP}
\abx@aux@cite{P-PAC12-VanDP}
\abx@aux@segm{0}{0}{P-PAC12-VanDP}
\abx@aux@cite{DF15b}
\abx@aux@segm{0}{0}{DF15b}
\abx@aux@cite{John89a}
\abx@aux@segm{0}{0}{John89a}
\abx@aux@cite{P-CaEdPN20-Bouly}
\abx@aux@segm{0}{0}{P-CaEdPN20-Bouly}
\abx@aux@cite{Patricia}
\abx@aux@segm{0}{0}{Patricia}
\abx@aux@cite{P-IPAC18-Rey}
\abx@aux@segm{0}{0}{P-IPAC18-Rey}
\babel@aux{USenglish}{}
\@writefile{toc}{\contentsline {section}{Introduction}{1}{section*.2}\protected@file@percent }
\abx@aux@cite{O-WebPage-EPICS-d}
\abx@aux@segm{0}{0}{O-WebPage-EPICS-d}
\abx@aux@cite{DB07a}
\abx@aux@segm{0}{0}{DB07a}
\abx@aux@cite{enwiki:1069321402}
\abx@aux@segm{0}{0}{enwiki:1069321402}
\abx@aux@cite{enwiki:1069321402}
\abx@aux@segm{0}{0}{enwiki:1069321402}
\abx@aux@cite{DF00}
\abx@aux@segm{0}{0}{DF00}
\abx@aux@cite{DeDL98e}
\abx@aux@segm{0}{0}{DeDL98e}
\abx@aux@cite{DeDe02c}
\abx@aux@segm{0}{0}{DeDe02c}
\abx@aux@cite{DF15d}
\abx@aux@segm{0}{0}{DF15d}
\abx@aux@cite{Buys20.3}
\abx@aux@segm{0}{0}{Buys20.3}
\abx@aux@cite{DF00}
\abx@aux@segm{0}{0}{DF00}
\abx@aux@cite{Gojko11}
\abx@aux@segm{0}{0}{Gojko11}
\abx@aux@cite{Martraire}
\abx@aux@segm{0}{0}{Martraire}
\abx@aux@cite{kexp21a}
\abx@aux@segm{0}{0}{kexp21a}
\abx@aux@cite{10.5555/2566876}
\abx@aux@segm{0}{0}{10.5555/2566876}
\abx@aux@cite{Tolga10}
\abx@aux@segm{0}{0}{Tolga10}
\abx@aux@cite{DeDL98e}
\abx@aux@segm{0}{0}{DeDL98e}
\abx@aux@cite{DF00}
\abx@aux@segm{0}{0}{DF00}
\abx@aux@cite{DeDe02c}
\abx@aux@segm{0}{0}{DeDe02c}
\@writefile{toc}{\contentsline {section}{Management of micro- and macrofaults}{2}{section*.3}\protected@file@percent }
\@writefile{toc}{\contentsline {section}{High adaptability}{2}{section*.8}\protected@file@percent }
\@writefile{toc}{\contentsline {section}{Conclusions and Possible Future Work}{2}{section*.13}\protected@file@percent }
\newlabel{s:conclusions}{{}{2}{Conclusions and Possible Future Work}{section*.13}{}}
\newlabel{s:conclusions@cref}{{}{[1][2][]2}}
\@writefile{lof}{\contentsline {figure}{\numberline {1}{\ignorespaces Front-end of the FTS. Some of the fields are pre-filled. The picture has been sliced and recomposed in order to make it more readable.\relax }}{3}{figure.caption.4}\protected@file@percent }
\providecommand*\caption@xref[2]{\@setref\relax\@undefined{#1}}
\newlabel{f:frontend}{{1}{3}{Front-end of the FTS. Some of the fields are pre-filled. The picture has been sliced and recomposed in order to make it more readable.\relax }{figure.caption.4}{}}
\newlabel{f:frontend@cref}{{[figure][1][]1}{[1][2][]3}}
\@writefile{lof}{\contentsline {figure}{\numberline {2}{\ignorespaces Back-end of the FTS showing a response to an HTTP POST. Portions of the picture have been removed in order to make it more readable. The response includes an equivalent cURL command~\cite {enwiki:1069321402}.\relax }}{3}{figure.caption.5}\protected@file@percent }
\newlabel{f:backend}{{2}{3}{Back-end of the FTS showing a response to an HTTP POST. Portions of the picture have been removed in order to make it more readable. The response includes an equivalent cURL command~\cite {enwiki:1069321402}.\relax }{figure.caption.5}{}}
\newlabel{f:backend@cref}{{[figure][2][]2}{[1][2][]3}}
\@writefile{lof}{\contentsline {figure}{\numberline {3}{\ignorespaces Module \texttt  {epicspost} is used here as a command line tool to log the value of a PV into the FTS database.\relax }}{4}{figure.caption.6}\protected@file@percent }
\newlabel{f:epicspost}{{3}{4}{Module \texttt {epicspost} is used here as a command line tool to log the value of a PV into the FTS database.\relax }{figure.caption.6}{}}
\newlabel{f:epicspost@cref}{{[figure][3][]3}{[1][2][]4}}
\@writefile{lof}{\contentsline {figure}{\numberline {4}{\ignorespaces Excerpt from the output of a successful call to \texttt  {epicspost}.\relax }}{4}{figure.caption.7}\protected@file@percent }
\newlabel{f:epicspost2}{{4}{4}{Excerpt from the output of a successful call to \texttt {epicspost}.\relax }{figure.caption.7}{}}
\newlabel{f:epicspost2@cref}{{[figure][4][]4}{[1][2][]4}}
\abx@aux@read@bbl@mdfivesum{731A92C16D8692433DCB55A44618453D}
\abx@aux@refcontextdefaultsdone
\abx@aux@defaultrefcontext{0}{P-IAEA03-Abder}{none/global//global/global}
\abx@aux@defaultrefcontext{0}{P-AccApp11-VanDP}{none/global//global/global}
\abx@aux@defaultrefcontext{0}{P-PAC12-VanDP}{none/global//global/global}
\abx@aux@defaultrefcontext{0}{DF15b}{none/global//global/global}
\abx@aux@defaultrefcontext{0}{John89a}{none/global//global/global}
\abx@aux@defaultrefcontext{0}{P-CaEdPN20-Bouly}{none/global//global/global}
\abx@aux@defaultrefcontext{0}{Patricia}{none/global//global/global}
\abx@aux@defaultrefcontext{0}{P-IPAC18-Rey}{none/global//global/global}
\abx@aux@defaultrefcontext{0}{O-WebPage-EPICS-d}{none/global//global/global}
\abx@aux@defaultrefcontext{0}{DB07a}{none/global//global/global}
\abx@aux@defaultrefcontext{0}{enwiki:1069321402}{none/global//global/global}
\abx@aux@defaultrefcontext{0}{DF00}{none/global//global/global}
\abx@aux@defaultrefcontext{0}{DeDL98e}{none/global//global/global}
\abx@aux@defaultrefcontext{0}{DeDe02c}{none/global//global/global}
\abx@aux@defaultrefcontext{0}{DF15d}{none/global//global/global}
\abx@aux@defaultrefcontext{0}{Buys20.3}{none/global//global/global}
\abx@aux@defaultrefcontext{0}{Gojko11}{none/global//global/global}
\abx@aux@defaultrefcontext{0}{Martraire}{none/global//global/global}
\abx@aux@defaultrefcontext{0}{kexp21a}{none/global//global/global}
\abx@aux@defaultrefcontext{0}{10.5555/2566876}{none/global//global/global}
\abx@aux@defaultrefcontext{0}{Tolga10}{none/global//global/global}
\@writefile{lof}{\contentsline {figure}{\numberline {5}{\ignorespaces Worksheet used to specify the data acquisition model for the FTS. The picture has been sliced and recomposed in order to make it more readable.\relax }}{5}{figure.caption.9}\protected@file@percent }
\newlabel{f:data-model}{{5}{5}{Worksheet used to specify the data acquisition model for the FTS. The picture has been sliced and recomposed in order to make it more readable.\relax }{figure.caption.9}{}}
\newlabel{f:data-model@cref}{{[figure][5][]5}{[1][2][]5}}
\@writefile{lof}{\contentsline {figure}{\numberline {6}{\ignorespaces A knowledge consumer creates and deploys all components of the FTS application.\relax }}{5}{figure.caption.10}\protected@file@percent }
\newlabel{f:kc}{{6}{5}{A knowledge consumer creates and deploys all components of the FTS application.\relax }{figure.caption.10}{}}
\newlabel{f:kc@cref}{{[figure][6][]6}{[1][2][]5}}
\newlabel{RF1}{6}
\@writefile{lof}{\contentsline {figure}{\numberline {7}{\ignorespaces System hierarchy, as extracted from the specification model. The hierarchy is converted into a SVG picture annotated with hyperlinks to the front-end of the FTS.\relax }}{6}{figure.caption.11}\protected@file@percent }
\newlabel{f:system-hierarchy-excel}{{7}{6}{System hierarchy, as extracted from the specification model. The hierarchy is converted into a SVG picture annotated with hyperlinks to the front-end of the FTS.\relax }{figure.caption.11}{}}
\newlabel{f:system-hierarchy-excel@cref}{{[figure][7][]7}{[1][2][]6}}
\newlabel{RF2}{6}
\@writefile{lof}{\contentsline {figure}{\numberline {8}{\ignorespaces System hierarchy, as extracted from the MYRRHA control system.\relax }}{6}{figure.caption.12}\protected@file@percent }
\newlabel{f:system-hierarchy-rest}{{8}{6}{System hierarchy, as extracted from the MYRRHA control system.\relax }{figure.caption.12}{}}
\newlabel{f:system-hierarchy-rest@cref}{{[figure][8][]8}{[1][2][]6}}
\gdef \@abspage@last{6}
