\BOOKMARK [1][-]{section*.2}{\376\377\000I\000n\000t\000r\000o\000d\000u\000c\000t\000i\000o\000n}{}% 1
\BOOKMARK [1][-]{section*.3}{\376\377\000M\000a\000n\000a\000g\000e\000m\000e\000n\000t\000\040\000o\000f\000\040\000m\000i\000c\000r\000o\000-\000\040\000a\000n\000d\000\040\000m\000a\000c\000r\000o\000f\000a\000u\000l\000t\000s}{}% 2
\BOOKMARK [1][-]{section*.8}{\376\377\000H\000i\000g\000h\000\040\000a\000d\000a\000p\000t\000a\000b\000i\000l\000i\000t\000y}{}% 3
\BOOKMARK [1][-]{section*.13}{\376\377\000C\000o\000n\000c\000l\000u\000s\000i\000o\000n\000s\000\040\000a\000n\000d\000\040\000P\000o\000s\000s\000i\000b\000l\000e\000\040\000F\000u\000t\000u\000r\000e\000\040\000W\000o\000r\000k}{}% 4
