\relax 
\providecommand\hyper@newdestlabel[2]{}
\@writefile{toc}{\boolfalse {citerequest}\boolfalse {citetracker}\boolfalse {pagetracker}\boolfalse {backtracker}\relax }
\@writefile{lof}{\boolfalse {citerequest}\boolfalse {citetracker}\boolfalse {pagetracker}\boolfalse {backtracker}\relax }
\@writefile{lot}{\boolfalse {citerequest}\boolfalse {citetracker}\boolfalse {pagetracker}\boolfalse {backtracker}\relax }
\abx@aux@refcontext{none/global//global/global}
\providecommand\babel@aux[2]{}
\@nameuse{bbl@beforestart}
\providecommand\HyperFirstAtBeginDocument{\AtBeginDocument}
\HyperFirstAtBeginDocument{\ifx\hyper@anchor\@undefined
\global\let\oldcontentsline\contentsline
\gdef\contentsline#1#2#3#4{\oldcontentsline{#1}{#2}{#3}}
\global\let\oldnewlabel\newlabel
\gdef\newlabel#1#2{\newlabelxx{#1}#2}
\gdef\newlabelxx#1#2#3#4#5#6{\oldnewlabel{#1}{{#2}{#3}}}
\AtEndDocument{\ifx\hyper@anchor\@undefined
\let\contentsline\oldcontentsline
\let\newlabel\oldnewlabel
\fi}
\fi}
\global\let\hyper@last\relax 
\gdef\HyperFirstAtBeginDocument#1{#1}
\providecommand\HyField@AuxAddToFields[1]{}
\providecommand\HyField@AuxAddToCoFields[2]{}
\abx@aux@cite{enwiki:1021916913}
\abx@aux@segm{0}{0}{enwiki:1021916913}
\abx@aux@cite{De10}
\abx@aux@segm{0}{0}{De10}
\abx@aux@cite{DF14a}
\abx@aux@segm{0}{0}{DF14a}
\abx@aux@cite{DBLP:journals/corr/FlorioP15}
\abx@aux@segm{0}{0}{DBLP:journals/corr/FlorioP15}
\abx@aux@cite{DF10a}
\abx@aux@segm{0}{0}{DF10a}
\abx@aux@cite{De11IMEC}
\abx@aux@segm{0}{0}{De11IMEC}
\abx@aux@cite{diffutils}
\abx@aux@segm{0}{0}{diffutils}
\abx@aux@cite{Gojko11}
\abx@aux@segm{0}{0}{Gojko11}
\abx@aux@cite{Martraire}
\abx@aux@segm{0}{0}{Martraire}
\abx@aux@cite{P-IAEA03-Abder}
\abx@aux@segm{0}{0}{P-IAEA03-Abder}
\abx@aux@cite{P-AccApp11-VanDP}
\abx@aux@segm{0}{0}{P-AccApp11-VanDP}
\abx@aux@cite{MINERVATDR}
\abx@aux@segm{0}{0}{MINERVATDR}
\abx@aux@cite{P-IAEA03-Abder}
\abx@aux@segm{0}{0}{P-IAEA03-Abder}
\abx@aux@cite{J-NuclInstrumMethodsPhysRes-2006-562.2-Bia}
\abx@aux@segm{0}{0}{J-NuclInstrumMethodsPhysRes-2006-562.2-Bia}
\abx@aux@cite{P-TCADS10-Knebel}
\abx@aux@segm{0}{0}{P-TCADS10-Knebel}
\abx@aux@cite{ALEMBERTI2014300}
\abx@aux@segm{0}{0}{ALEMBERTI2014300}
\abx@aux@cite{10.1007/978-3-319-26542-1_38}
\abx@aux@segm{0}{0}{10.1007/978-3-319-26542-1_38}
\abx@aux@cite{refId0}
\abx@aux@segm{0}{0}{refId0}
\abx@aux@cite{myrte}
\abx@aux@segm{0}{0}{myrte}
\babel@aux{USenglish}{}
\@writefile{toc}{\contentsline {section}{Introduction}{1}{section*.2}\protected@file@percent }
\@writefile{toc}{\contentsline {section}{The Target System and Its Lifespan}{1}{section*.3}\protected@file@percent }
\newlabel{s:MYRRHA}{{}{1}{The Target System and Its Lifespan}{section*.3}{}}
\abx@aux@cite{P-AccApp11-VanDP}
\abx@aux@segm{0}{0}{P-AccApp11-VanDP}
\abx@aux@cite{BOYD200135}
\abx@aux@segm{0}{0}{BOYD200135}
\abx@aux@cite{Tolga10}
\abx@aux@segm{0}{0}{Tolga10}
\abx@aux@cite{P-IPAC15-Uriot}
\abx@aux@segm{0}{0}{P-IPAC15-Uriot}
\@writefile{toc}{\contentsline {section}{The Approach}{2}{section*.4}\protected@file@percent }
\newlabel{s:kexp}{{}{2}{The Approach}{section*.4}{}}
\abx@aux@cite{enwiki:1045660779}
\abx@aux@segm{0}{0}{enwiki:1045660779}
\abx@aux@cite{enwiki:1044933145}
\abx@aux@segm{0}{0}{enwiki:1044933145}
\abx@aux@cite{De10}
\abx@aux@segm{0}{0}{De10}
\abx@aux@cite{10.5555/2566876}
\abx@aux@segm{0}{0}{10.5555/2566876}
\@writefile{toc}{\contentsline {section}{Applying {KExC} to MYRRHA}{3}{section*.5}\protected@file@percent }
\newlabel{s:application}{{}{3}{Applying {\kexp } to MYRRHA}{section*.5}{}}
\@writefile{toc}{\contentsline {subsection}{Knowledge extractors}{3}{section*.6}\protected@file@percent }
\@writefile{toc}{\contentsline {subsection}{Knowledge consumers}{3}{section*.8}\protected@file@percent }
\newlabel{s:kw-consumers}{{}{3}{Knowledge consumers}{section*.8}{}}
\@writefile{toc}{\contentsline {section}{Conclusions}{3}{section*.13}\protected@file@percent }
\abx@aux@cite{PolarionWebsite}
\abx@aux@segm{0}{0}{PolarionWebsite}
\@writefile{lof}{\contentsline {figure}{\numberline {1}{\ignorespaces The {\texttt  {tracex.py}} parsers deduce a structural information that, in this case, contradicts the consolidated architecture of $\symcal {S}$.\relax }}{4}{figure.caption.7}\protected@file@percent }
\providecommand*\caption@xref[2]{\@setref\relax\@undefined{#1}}
\newlabel{fig:tracex:unexpected}{{1}{4}{The {\tracex } parsers deduce a structural information that, in this case, contradicts the consolidated architecture of $\S $.\relax }{figure.caption.7}{}}
\@writefile{lof}{\contentsline {figure}{\numberline {2}{\ignorespaces System parameters are assigned to \LaTeX {} macros by module {\texttt  {LaTeXmacros.py}}.\relax }}{4}{figure.caption.9}\protected@file@percent }
\newlabel{fig:latexmacros:1}{{2}{4}{System parameters are assigned to \LaTeX {} macros by module {\latexmacros }.\relax }{figure.caption.9}{}}
\@writefile{lof}{\contentsline {figure}{\numberline {3}{\ignorespaces System components---in this case, spoke cavities---are assigned to instance macros: macros that check their own arguments to verify whether they respect the system structure of the Trustworthy Description.\relax }}{4}{figure.caption.10}\protected@file@percent }
\newlabel{fig:latexmacros:2}{{3}{4}{System components---in this case, spoke cavities---are assigned to instance macros: macros that check their own arguments to verify whether they respect the system structure of the Trustworthy Description.\relax }{figure.caption.10}{}}
\@writefile{lof}{\contentsline {figure}{\numberline {4}{\ignorespaces An example of a consistency checking macros: the value of a same system parameter, parsed by two reference sources, is checked for consistency.\relax }}{5}{figure.caption.11}\protected@file@percent }
\newlabel{fig:latexmacros:3}{{4}{5}{An example of a consistency checking macros: the value of a same system parameter, parsed by two reference sources, is checked for consistency.\relax }{figure.caption.11}{}}
\@writefile{lof}{\contentsline {figure}{\numberline {5}{\ignorespaces Module {\texttt  {LaTeXmacros.py}} creates living pictures from picture templates. \relax }}{5}{figure.caption.12}\protected@file@percent }
\newlabel{fig:latexmacros:4}{{5}{5}{Module {\latexmacros } creates living pictures from picture templates. \relax }{figure.caption.12}{}}
\@writefile{lof}{\contentsline {figure}{\numberline {6}{\ignorespaces Beam flow produced by the {\texttt  {linac.py}} knowledge consumer: Top level.\relax }}{5}{figure.caption.14}\protected@file@percent }
\newlabel{fig:linac_svg:1}{{6}{5}{Beam flow produced by the {\linac } knowledge consumer: Top level.\relax }{figure.caption.14}{}}
\@writefile{lof}{\contentsline {figure}{\numberline {7}{\ignorespaces Beam flow produced by the {\texttt  {linac.py}} knowledge consumer: Mid level (lbs section).\relax }}{5}{figure.caption.15}\protected@file@percent }
\newlabel{fig:linac_svg:2}{{7}{5}{Beam flow produced by the {\linac } knowledge consumer: Mid level (lbs section).\relax }{figure.caption.15}{}}
\abx@aux@read@bbl@mdfivesum{89A08C5D2525486AF6BB5447339CB8DD}
\abx@aux@refcontextdefaultsdone
\abx@aux@defaultrefcontext{0}{enwiki:1021916913}{none/global//global/global}
\abx@aux@defaultrefcontext{0}{De10}{none/global//global/global}
\abx@aux@defaultrefcontext{0}{DF14a}{none/global//global/global}
\abx@aux@defaultrefcontext{0}{DBLP:journals/corr/FlorioP15}{none/global//global/global}
\abx@aux@defaultrefcontext{0}{DF10a}{none/global//global/global}
\abx@aux@defaultrefcontext{0}{De11IMEC}{none/global//global/global}
\abx@aux@defaultrefcontext{0}{diffutils}{none/global//global/global}
\abx@aux@defaultrefcontext{0}{Gojko11}{none/global//global/global}
\abx@aux@defaultrefcontext{0}{Martraire}{none/global//global/global}
\abx@aux@defaultrefcontext{0}{P-IAEA03-Abder}{none/global//global/global}
\abx@aux@defaultrefcontext{0}{P-AccApp11-VanDP}{none/global//global/global}
\abx@aux@defaultrefcontext{0}{MINERVATDR}{none/global//global/global}
\abx@aux@defaultrefcontext{0}{J-NuclInstrumMethodsPhysRes-2006-562.2-Bia}{none/global//global/global}
\abx@aux@defaultrefcontext{0}{P-TCADS10-Knebel}{none/global//global/global}
\abx@aux@defaultrefcontext{0}{ALEMBERTI2014300}{none/global//global/global}
\abx@aux@defaultrefcontext{0}{10.1007/978-3-319-26542-1_38}{none/global//global/global}
\abx@aux@defaultrefcontext{0}{refId0}{none/global//global/global}
\abx@aux@defaultrefcontext{0}{myrte}{none/global//global/global}
\abx@aux@defaultrefcontext{0}{BOYD200135}{none/global//global/global}
\abx@aux@defaultrefcontext{0}{Tolga10}{none/global//global/global}
\abx@aux@defaultrefcontext{0}{P-IPAC15-Uriot}{none/global//global/global}
\abx@aux@defaultrefcontext{0}{enwiki:1045660779}{none/global//global/global}
\abx@aux@defaultrefcontext{0}{enwiki:1044933145}{none/global//global/global}
\abx@aux@defaultrefcontext{0}{10.5555/2566876}{none/global//global/global}
\@writefile{lof}{\contentsline {figure}{\numberline {8}{\ignorespaces Beam flow produced by the {\texttt  {linac.py}} knowledge consumer: Bottom level (TraceWin statements).\relax }}{6}{figure.caption.16}\protected@file@percent }
\newlabel{fig:linac_svg:3}{{8}{6}{Beam flow produced by the {\linac } knowledge consumer: Bottom level (TraceWin statements).\relax }{figure.caption.16}{}}
\gdef \@abspage@last{6}
