<?xml version="1.0" encoding="UTF-8" standalone="no"?><svg xmlns="http://www.w3.org/2000/svg" xmlns:xlink="http://www.w3.org/1999/xlink" contentScriptType="application/ecmascript" contentStyleType="text/css" height="641px" preserveAspectRatio="none" style="width:1272px;height:641px;background:#EEEBDC;" version="1.1" viewBox="0 0 1272 641" width="1272px" zoomAndPan="magnify"><defs><filter height="300%" id="fhnrlo8mt2w4m" width="300%" x="-1" y="-1"><feGaussianBlur result="blurOut" stdDeviation="2.0"/><feColorMatrix in="blurOut" result="blurOut2" type="matrix" values="0 0 0 0 0 0 0 0 0 0 0 0 0 0 0 0 0 0 .4 0"/><feOffset dx="4.0" dy="4.0" in="blurOut2" result="blurOut3"/><feBlend in="SourceGraphic" in2="blurOut3" mode="normal"/></filter></defs><g><text fill="#000000" font-family="sans-serif" font-size="18" lengthAdjust="spacing" textLength="398" x="430.75" y="16.708">Tracex knowledge extractors and consumers</text><!--MD5=[6296b2d8f1953cefcf5e8d91ff72107f]
cluster TraceWin--><path d="M152.5,414.9531 C152.5,404.9531 227.5,404.9531 227.5,404.9531 C227.5,404.9531 302.5,404.9531 302.5,414.9531 L302.5,496.9531 C302.5,506.9531 227.5,506.9531 227.5,506.9531 C227.5,506.9531 152.5,506.9531 152.5,496.9531 L152.5,414.9531 " fill="#EEEBDC" filter="url(#fhnrlo8mt2w4m)" style="stroke:#000000;stroke-width:1.5;"/><path d="M152.5,414.9531 C152.5,424.9531 227.5,424.9531 227.5,424.9531 C227.5,424.9531 302.5,424.9531 302.5,414.9531 " fill="none" style="stroke:#000000;stroke-width:1.5;"/><text fill="#000000" font-family="sans-serif" font-size="14" font-weight="bold" lengthAdjust="spacing" textLength="74" x="190.5" y="439.9482">TraceWin</text><!--MD5=[520b7538d47f48e6ff9f4499aed43eeb]
cluster Tracex--><polygon fill="#EEEBDC" filter="url(#fhnrlo8mt2w4m)" points="264.5,219.9531,324.5,219.9531,331.5,242.25,382.5,242.25,382.5,306.9531,264.5,306.9531,264.5,219.9531" style="stroke:#000000;stroke-width:1.5;"/><line style="stroke:#000000;stroke-width:1.5;" x1="264.5" x2="331.5" y1="242.25" y2="242.25"/><text fill="#000000" font-family="sans-serif" font-size="14" font-weight="bold" lengthAdjust="spacing" textLength="54" x="268.5" y="234.9482">Tracex</text><!--MD5=[827f2836240f6c4947f7096109ee3232]
cluster Py-modules--><path d="M326.5,414.9531 C326.5,404.9531 392.5,404.9531 392.5,404.9531 C392.5,404.9531 458.5,404.9531 458.5,414.9531 L458.5,496.9531 C458.5,506.9531 392.5,506.9531 392.5,506.9531 C392.5,506.9531 326.5,506.9531 326.5,496.9531 L326.5,414.9531 " fill="#EEEBDC" filter="url(#fhnrlo8mt2w4m)" style="stroke:#000000;stroke-width:1.5;"/><path d="M326.5,414.9531 C326.5,424.9531 392.5,424.9531 392.5,424.9531 C392.5,424.9531 458.5,424.9531 458.5,414.9531 " fill="none" style="stroke:#000000;stroke-width:1.5;"/><text fill="#000000" font-family="sans-serif" font-size="14" font-weight="bold" lengthAdjust="spacing" textLength="92" x="346.5" y="439.9482">Py-modules</text><!--MD5=[5bb4998902523d00bf4f26a6b9b6c013]
cluster Flow--><polygon fill="#EEEBDC" filter="url(#fhnrlo8mt2w4m)" points="36.5,219.9531,79.5,219.9531,86.5,242.25,136.5,242.25,136.5,306.9531,36.5,306.9531,36.5,219.9531" style="stroke:#000000;stroke-width:1.5;"/><line style="stroke:#000000;stroke-width:1.5;" x1="36.5" x2="86.5" y1="242.25" y2="242.25"/><text fill="#000000" font-family="sans-serif" font-size="14" font-weight="bold" lengthAdjust="spacing" textLength="37" x="40.5" y="234.9482">Flow</text><!--MD5=[3e7a6b93c8a2f642c927d5258cea96fa]
cluster SVG\nTraceView\ndiagram--><path d="M22.5,382.9531 C22.5,372.9531 75.5,372.9531 75.5,372.9531 C75.5,372.9531 128.5,372.9531 128.5,382.9531 L128.5,496.9531 C128.5,506.9531 75.5,506.9531 75.5,506.9531 C75.5,506.9531 22.5,506.9531 22.5,496.9531 L22.5,382.9531 " fill="#EEEBDC" filter="url(#fhnrlo8mt2w4m)" style="stroke:#000000;stroke-width:1.5;"/><path d="M22.5,382.9531 C22.5,392.9531 75.5,392.9531 75.5,392.9531 C75.5,392.9531 128.5,392.9531 128.5,382.9531 " fill="none" style="stroke:#000000;stroke-width:1.5;"/><text fill="#000000" font-family="sans-serif" font-size="14" font-weight="bold" lengthAdjust="spacing" textLength="33" x="59" y="407.9482">SVG</text><text fill="#000000" font-family="sans-serif" font-size="14" font-weight="bold" lengthAdjust="spacing" textLength="84" x="33.5" y="424.2451">TraceView</text><text fill="#000000" font-family="sans-serif" font-size="14" font-weight="bold" lengthAdjust="spacing" textLength="63" x="44" y="440.542">diagram</text><!--MD5=[eb6f6f5b51c53600f9241d2296d9002f]
cluster LaTeXmacros--><polygon fill="#EEEBDC" filter="url(#fhnrlo8mt2w4m)" points="707.5,219.9531,819.5,219.9531,826.5,242.25,873.5,242.25,873.5,306.9531,707.5,306.9531,707.5,219.9531" style="stroke:#000000;stroke-width:1.5;"/><line style="stroke:#000000;stroke-width:1.5;" x1="707.5" x2="826.5" y1="242.25" y2="242.25"/><text fill="#000000" font-family="sans-serif" font-size="14" font-weight="bold" lengthAdjust="spacing" textLength="106" x="711.5" y="234.9482">LaTeXmacros</text><!--MD5=[ddc678bae9be55f310afc3022b6e1011]
cluster macros.tex--><path d="M920.5,414.9531 C920.5,404.9531 984.5,404.9531 984.5,404.9531 C984.5,404.9531 1048.5,404.9531 1048.5,414.9531 L1048.5,496.9531 C1048.5,506.9531 984.5,506.9531 984.5,506.9531 C984.5,506.9531 920.5,506.9531 920.5,496.9531 L920.5,414.9531 " fill="#EEEBDC" filter="url(#fhnrlo8mt2w4m)" style="stroke:#000000;stroke-width:1.5;"/><path d="M920.5,414.9531 C920.5,424.9531 984.5,424.9531 984.5,424.9531 C984.5,424.9531 1048.5,424.9531 1048.5,414.9531 " fill="none" style="stroke:#000000;stroke-width:1.5;"/><text fill="#000000" font-family="sans-serif" font-size="14" font-weight="bold" lengthAdjust="spacing" textLength="88" x="940.5" y="439.9482">macros.tex</text><!--MD5=[7a89ef5d60dbc29a456654f98671c535]
cluster TDR sources--><path d="M897.5,214.9531 C897.5,204.9531 984.5,204.9531 984.5,204.9531 C984.5,204.9531 1071.5,204.9531 1071.5,214.9531 L1071.5,296.9531 C1071.5,306.9531 984.5,306.9531 984.5,306.9531 C984.5,306.9531 897.5,306.9531 897.5,296.9531 L897.5,214.9531 " fill="#EEEBDC" filter="url(#fhnrlo8mt2w4m)" style="stroke:#000000;stroke-width:1.5;"/><path d="M897.5,214.9531 C897.5,224.9531 984.5,224.9531 984.5,224.9531 C984.5,224.9531 1071.5,224.9531 1071.5,214.9531 " fill="none" style="stroke:#000000;stroke-width:1.5;"/><text fill="#000000" font-family="sans-serif" font-size="14" font-weight="bold" lengthAdjust="spacing" textLength="100" x="934.5" y="239.9482">TDR sources</text><!--MD5=[f854267f2c302bac8d3b886107378d4a]
cluster LaTeX--><polygon fill="#EEEBDC" filter="url(#fhnrlo8mt2w4m)" points="1097.5,211.4531,1151.5,211.4531,1158.5,233.75,1255.5,233.75,1255.5,315.4531,1097.5,315.4531,1097.5,211.4531" style="stroke:#000000;stroke-width:1.5;"/><line style="stroke:#000000;stroke-width:1.5;" x1="1097.5" x2="1158.5" y1="233.75" y2="233.75"/><text fill="#000000" font-family="sans-serif" font-size="14" font-weight="bold" lengthAdjust="spacing" textLength="48" x="1101.5" y="226.4482">LaTeX</text><!--MD5=[139b45377b3e8be9f0f211ee35bcea44]
cluster TDR--><path d="M1088.5,414.9531 C1088.5,404.9531 1176.5,404.9531 1176.5,404.9531 C1176.5,404.9531 1264.5,404.9531 1264.5,414.9531 L1264.5,496.9531 C1264.5,506.9531 1176.5,506.9531 1176.5,506.9531 C1176.5,506.9531 1088.5,506.9531 1088.5,496.9531 L1088.5,414.9531 " fill="#EEEBDC" filter="url(#fhnrlo8mt2w4m)" style="stroke:#000000;stroke-width:1.5;"/><path d="M1088.5,414.9531 C1088.5,424.9531 1176.5,424.9531 1176.5,424.9531 C1176.5,424.9531 1264.5,424.9531 1264.5,414.9531 " fill="none" style="stroke:#000000;stroke-width:1.5;"/><text fill="#000000" font-family="sans-serif" font-size="14" font-weight="bold" lengthAdjust="spacing" textLength="31" x="1161" y="439.9482">TDR</text><!--MD5=[d04156a63b2cfdd98ff57e6e53fd7c9c]
cluster Trace SVG--><polygon fill="#EEEBDC" filter="url(#fhnrlo8mt2w4m)" points="496.5,219.9531,585.5,219.9531,592.5,242.25,634.5,242.25,634.5,306.9531,496.5,306.9531,496.5,219.9531" style="stroke:#000000;stroke-width:1.5;"/><line style="stroke:#000000;stroke-width:1.5;" x1="496.5" x2="592.5" y1="242.25" y2="242.25"/><text fill="#000000" font-family="sans-serif" font-size="14" font-weight="bold" lengthAdjust="spacing" textLength="83" x="500.5" y="234.9482">Trace SVG</text><!--MD5=[3d001dc995bb7112d310fc67a015ce21]
cluster SVG\nLinac\ndiagrams--><path d="M482.5,374.4531 C482.5,364.4531 671.5,364.4531 671.5,364.4531 C671.5,364.4531 860.5,364.4531 860.5,374.4531 L860.5,505.4531 C860.5,515.4531 671.5,515.4531 671.5,515.4531 C671.5,515.4531 482.5,515.4531 482.5,505.4531 L482.5,374.4531 " fill="#EEEBDC" filter="url(#fhnrlo8mt2w4m)" style="stroke:#000000;stroke-width:1.5;"/><path d="M482.5,374.4531 C482.5,384.4531 671.5,384.4531 671.5,384.4531 C671.5,384.4531 860.5,384.4531 860.5,374.4531 " fill="none" style="stroke:#000000;stroke-width:1.5;"/><text fill="#000000" font-family="sans-serif" font-size="14" font-weight="bold" lengthAdjust="spacing" textLength="33" x="655" y="399.4482">SVG</text><text fill="#000000" font-family="sans-serif" font-size="14" font-weight="bold" lengthAdjust="spacing" textLength="41" x="651" y="415.7451">Linac</text><text fill="#000000" font-family="sans-serif" font-size="14" font-weight="bold" lengthAdjust="spacing" textLength="72" x="635.5" y="432.042">diagrams</text><!--MD5=[0ccfdb9502303978ec59c101ac430911]
entity tw--><rect fill="#FFFF00" filter="url(#fhnrlo8mt2w4m)" height="36.2969" style="stroke:#000000;stroke-width:1.5;" width="118" x="168.5" y="454.9531"/><text fill="#000000" font-family="sans-serif" font-size="14" lengthAdjust="spacing" textLength="90" x="182.5" y="477.9482">TraceWin.dat</text><!--MD5=[8006fcd3e79c6764a188c4bbee0fe428]
entity tx--><rect fill="#FEFECE" filter="url(#fhnrlo8mt2w4m)" height="36.2969" style="stroke:#000000;stroke-width:1.5;" width="86" x="280.5" y="254.9531"/><text fill="#000000" font-family="sans-serif" font-size="14" lengthAdjust="spacing" textLength="66" x="290.5" y="277.9482">Tracex.py</text><!--MD5=[a98b032d8afbcc8dc0270292879415fa]
entity md--><rect fill="#008000" filter="url(#fhnrlo8mt2w4m)" height="36.2969" style="stroke:#000000;stroke-width:1.5;" width="100" x="342.5" y="454.9531"/><text fill="#000000" font-family="sans-serif" font-size="14" lengthAdjust="spacing" textLength="80" x="352.5" y="477.9482">modules.py</text><!--MD5=[3106d6351c1a4d381cadc62596eaa276]
entity fl--><rect fill="#FEFECE" filter="url(#fhnrlo8mt2w4m)" height="36.2969" style="stroke:#000000;stroke-width:1.5;" width="67" x="53" y="254.9531"/><text fill="#000000" font-family="sans-serif" font-size="14" lengthAdjust="spacing" textLength="47" x="63" y="277.9482">flow.py</text><!--MD5=[c220d3e15d646e6ed0402fa6d2a96260]
entity pl--><a href="http://tdr.myrrha.lan/vfolders/tracex/flow.svg" target="_top" title="http://tdr.myrrha.lan/vfolders/tracex/flow.svg" xlink:actuate="onRequest" xlink:href="http://tdr.myrrha.lan/vfolders/tracex/flow.svg" xlink:show="new" xlink:title="http://tdr.myrrha.lan/vfolders/tracex/flow.svg" xlink:type="simple"><rect fill="#FEFECE" filter="url(#fhnrlo8mt2w4m)" height="36.2969" style="stroke:#000000;stroke-width:1.5;" width="75" x="38" y="454.9531"/><text fill="#000000" font-family="sans-serif" font-size="14" lengthAdjust="spacing" textLength="55" x="48" y="477.9482">flow.svg</text></a><!--MD5=[4dcdb20ce0fb0ad75b7fd856cd1e9690]
entity ltx--><rect fill="#FEFECE" filter="url(#fhnrlo8mt2w4m)" height="36.2969" style="stroke:#000000;stroke-width:1.5;" width="133" x="724" y="254.9531"/><text fill="#000000" font-family="sans-serif" font-size="14" lengthAdjust="spacing" textLength="113" x="734" y="277.9482">LaTeXmacros.py</text><!--MD5=[8a2f435cfe7ca7248e722ece2383999a]
entity mac--><rect fill="#FEFECE" filter="url(#fhnrlo8mt2w4m)" height="36.2969" style="stroke:#000000;stroke-width:1.5;" width="96" x="936.5" y="454.9531"/><text fill="#000000" font-family="sans-serif" font-size="14" lengthAdjust="spacing" textLength="76" x="946.5" y="477.9482">macros.tex</text><!--MD5=[711ae3af6ae889985ce89f50daa4b514]
entity tdr--><rect fill="#FEFECE" filter="url(#fhnrlo8mt2w4m)" height="36.2969" style="stroke:#000000;stroke-width:1.5;" width="142" x="913.5" y="254.9531"/><text fill="#000000" font-family="sans-serif" font-size="14" lengthAdjust="spacing" textLength="122" x="923.5" y="277.9482">MINERVA-TDR.tex</text><!--MD5=[da71c6d1fd8f6d6872307642412e79c6]
entity pdflatex--><rect fill="#FEFECE" filter="url(#fhnrlo8mt2w4m)" height="52.5938" style="stroke:#000000;stroke-width:1.5;" width="125" x="1114" y="246.4531"/><text fill="#000000" font-family="sans-serif" font-size="14" lengthAdjust="spacing" textLength="92" x="1130.5" y="269.4482">LaTeX produ-</text><text fill="#000000" font-family="sans-serif" font-size="14" lengthAdjust="spacing" textLength="105" x="1124" y="285.7451">ction packages</text><!--MD5=[de394e8ee60fde07e59920d7d8cac759]
entity tdrpdf--><rect fill="#FEFECE" filter="url(#fhnrlo8mt2w4m)" height="36.2969" style="stroke:#000000;stroke-width:1.5;" width="143" x="1105" y="454.9531"/><text fill="#000000" font-family="sans-serif" font-size="14" lengthAdjust="spacing" textLength="123" x="1115" y="477.9482">MINERVA-TDR.pdf</text><!--MD5=[af3e6197e84107af4d7af0f0eea78e82]
entity trace_svg--><rect fill="#FEFECE" filter="url(#fhnrlo8mt2w4m)" height="36.2969" style="stroke:#000000;stroke-width:1.5;" width="106" x="512.5" y="254.9531"/><text fill="#000000" font-family="sans-serif" font-size="14" lengthAdjust="spacing" textLength="86" x="522.5" y="277.9482">trace_svg.py</text><!--MD5=[4f5179cd0c3f35e7af3ba41485c4bef0]
entity linac--><a href="http://tdr.myrrha.lan/vfolders/tracex/linac.svg" target="_top" title="http://tdr.myrrha.lan/vfolders/tracex/linac.svg" xlink:actuate="onRequest" xlink:href="http://tdr.myrrha.lan/vfolders/tracex/linac.svg" xlink:show="new" xlink:title="http://tdr.myrrha.lan/vfolders/tracex/linac.svg" xlink:type="simple"><rect fill="#FEFECE" filter="url(#fhnrlo8mt2w4m)" height="36.2969" style="stroke:#000000;stroke-width:1.5;" width="79" x="643" y="454.9531"/><text fill="#000000" font-family="sans-serif" font-size="14" lengthAdjust="spacing" textLength="59" x="653" y="477.9482">linac.svg</text></a><!--MD5=[e0ed289562ba2cee4e2fc4bb3aa032d3]
entity sub_linac--><rect fill="#FEFECE" filter="url(#fhnrlo8mt2w4m)" height="52.5938" style="stroke:#000000;stroke-width:1.5;" width="109" x="499" y="446.4531"/><text fill="#000000" font-family="sans-serif" font-size="14" lengthAdjust="spacing" textLength="89" x="509" y="469.4482">sub-systems</text><text fill="#000000" font-family="sans-serif" font-size="14" lengthAdjust="spacing" textLength="63" x="522" y="485.7451">diagrams</text><!--MD5=[c6716df3b9d44853debf8c2ffb4aba01]
entity tw_html--><rect fill="#FEFECE" filter="url(#fhnrlo8mt2w4m)" height="52.5938" style="stroke:#000000;stroke-width:1.5;" width="87" x="757" y="446.4531"/><text fill="#000000" font-family="sans-serif" font-size="14" lengthAdjust="spacing" textLength="66" x="767.5" y="469.4482">html tran-</text><text fill="#000000" font-family="sans-serif" font-size="14" lengthAdjust="spacing" textLength="67" x="767" y="485.7451">scriptions</text><path d="M188,577.9531 L188,618.2188 A0,0 0 0 0 188,618.2188 L267,618.2188 A0,0 0 0 0 267,618.2188 L267,587.9531 L257,577.9531 L231.5,577.9531 L227.5,491.0531 L223.5,577.9531 L188,577.9531 A0,0 0 0 0 188,577.9531 " fill="#FBFB77" filter="url(#fhnrlo8mt2w4m)" style="stroke:#A80036;stroke-width:1.0;"/><path d="M257,577.9531 L257,587.9531 L267,587.9531 L257,577.9531 " fill="#FBFB77" style="stroke:#A80036;stroke-width:1.0;"/><text fill="#000000" font-family="sans-serif" font-size="13" lengthAdjust="spacing" textLength="0" x="226" y="595.02"/><text fill="#000000" font-family="sans-serif" font-size="13" font-weight="bold" lengthAdjust="spacing" textLength="14" x="226" y="595.02">1.</text><text fill="#000000" font-family="sans-serif" font-size="13" lengthAdjust="spacing" textLength="58" x="194" y="610.1528">Input file.</text><path d="M243,49.4531 L243,135.1172 A0,0 0 0 0 243,135.1172 L319.5,135.1172 L323.5,254.6931 L327.5,135.1172 L404,135.1172 A0,0 0 0 0 404,135.1172 L404,59.4531 L394,49.4531 L243,49.4531 A0,0 0 0 0 243,49.4531 " fill="#FBFB77" filter="url(#fhnrlo8mt2w4m)" style="stroke:#A80036;stroke-width:1.0;"/><path d="M394,49.4531 L394,59.4531 L404,59.4531 L394,49.4531 " fill="#FBFB77" style="stroke:#A80036;stroke-width:1.0;"/><text fill="#000000" font-family="sans-serif" font-size="13" lengthAdjust="spacing" textLength="0" x="281" y="66.52"/><text fill="#000000" font-family="sans-serif" font-size="13" font-weight="bold" lengthAdjust="spacing" textLength="14" x="281" y="66.52">2.</text><text fill="#000000" font-family="sans-serif" font-size="13" lengthAdjust="spacing" textLength="134" x="249" y="81.6528">Knowledge extractor.</text><text fill="#000000" font-family="sans-serif" font-size="13" lengthAdjust="spacing" textLength="132" x="249" y="96.7856">Produces the Python</text><text fill="#000000" font-family="sans-serif" font-size="13" lengthAdjust="spacing" textLength="126" x="249" y="111.9185">data structure used</text><text fill="#000000" font-family="sans-serif" font-size="13" lengthAdjust="spacing" textLength="140" x="249" y="127.0513">by all other packages.</text><path d="M312.5,562.4531 L312.5,632.9844 A0,0 0 0 0 312.5,632.9844 L472.5,632.9844 A0,0 0 0 0 472.5,632.9844 L472.5,572.4531 L462.5,562.4531 L396.5,562.4531 L392.5,491.0531 L388.5,562.4531 L312.5,562.4531 A0,0 0 0 0 312.5,562.4531 " fill="#FBFB77" filter="url(#fhnrlo8mt2w4m)" style="stroke:#A80036;stroke-width:1.0;"/><path d="M462.5,562.4531 L462.5,572.4531 L472.5,572.4531 L462.5,562.4531 " fill="#FBFB77" style="stroke:#A80036;stroke-width:1.0;"/><text fill="#000000" font-family="sans-serif" font-size="13" lengthAdjust="spacing" textLength="0" x="350.5" y="579.52"/><text fill="#000000" font-family="sans-serif" font-size="13" font-weight="bold" lengthAdjust="spacing" textLength="14" x="350.5" y="579.52">3.</text><text fill="#000000" font-family="sans-serif" font-size="13" lengthAdjust="spacing" textLength="139" x="318.5" y="594.6528">Python data structure</text><text fill="#000000" font-family="sans-serif" font-size="13" lengthAdjust="spacing" textLength="138" x="318.5" y="609.7856">packaging the data in</text><text fill="#000000" font-family="sans-serif" font-size="13" lengthAdjust="spacing" textLength="83" x="318.5" y="624.9185">the input file.</text><path d="M6,26.9531 L6,158.0156 A0,0 0 0 0 6,158.0156 L82.5,158.0156 L86.5,254.7031 L90.5,158.0156 L167,158.0156 A0,0 0 0 0 167,158.0156 L167,36.9531 L157,26.9531 L6,26.9531 A0,0 0 0 0 6,26.9531 " fill="#FBFB77" filter="url(#fhnrlo8mt2w4m)" style="stroke:#A80036;stroke-width:1.0;"/><path d="M157,26.9531 L157,36.9531 L167,36.9531 L157,26.9531 " fill="#FBFB77" style="stroke:#A80036;stroke-width:1.0;"/><text fill="#000000" font-family="sans-serif" font-size="13" lengthAdjust="spacing" textLength="0" x="44" y="44.02"/><text fill="#000000" font-family="sans-serif" font-size="13" font-weight="bold" lengthAdjust="spacing" textLength="14" x="44" y="44.02">4.</text><text fill="#000000" font-family="sans-serif" font-size="13" lengthAdjust="spacing" textLength="140" x="12" y="59.1528">Knowledge consumer.</text><text fill="#000000" font-family="sans-serif" font-size="13" lengthAdjust="spacing" textLength="112" x="12" y="74.2856">Reads the Python</text><text fill="#000000" font-family="sans-serif" font-size="13" lengthAdjust="spacing" textLength="119" x="12" y="89.4185">data structure and</text><text fill="#000000" font-family="sans-serif" font-size="13" lengthAdjust="spacing" textLength="117" x="12" y="104.5513">creates a diagram</text><text fill="#000000" font-family="sans-serif" font-size="13" lengthAdjust="spacing" textLength="107" x="12" y="119.6841">with a structured</text><text fill="#000000" font-family="sans-serif" font-size="13" lengthAdjust="spacing" textLength="111" x="12" y="134.8169">description of the</text><text fill="#000000" font-family="sans-serif" font-size="13" lengthAdjust="spacing" textLength="121" x="12" y="149.9497">TraceWin contents.</text><path d="M9.5,577.9531 L9.5,618.2188 A0,0 0 0 0 9.5,618.2188 L141.5,618.2188 A0,0 0 0 0 141.5,618.2188 L141.5,587.9531 L131.5,577.9531 L79.5,577.9531 L75.5,491.0531 L71.5,577.9531 L9.5,577.9531 A0,0 0 0 0 9.5,577.9531 " fill="#FBFB77" filter="url(#fhnrlo8mt2w4m)" style="stroke:#A80036;stroke-width:1.0;"/><path d="M131.5,577.9531 L131.5,587.9531 L141.5,587.9531 L131.5,577.9531 " fill="#FBFB77" style="stroke:#A80036;stroke-width:1.0;"/><text fill="#000000" font-family="sans-serif" font-size="13" lengthAdjust="spacing" textLength="0" x="47.5" y="595.02"/><text fill="#000000" font-family="sans-serif" font-size="13" font-weight="bold" lengthAdjust="spacing" textLength="14" x="47.5" y="595.02">5.</text><text fill="#000000" font-family="sans-serif" font-size="13" lengthAdjust="spacing" textLength="111" x="15.5" y="610.1528">Output of flow.py.</text><path d="M708,34.4531 L708,150.3828 A0,0 0 0 0 708,150.3828 L785.82,150.3828 L790.4,254.7931 L793.82,150.3828 L871,150.3828 A0,0 0 0 0 871,150.3828 L871,44.4531 L861,34.4531 L708,34.4531 A0,0 0 0 0 708,34.4531 " fill="#FBFB77" filter="url(#fhnrlo8mt2w4m)" style="stroke:#A80036;stroke-width:1.0;"/><path d="M861,34.4531 L861,44.4531 L871,44.4531 L861,34.4531 " fill="#FBFB77" style="stroke:#A80036;stroke-width:1.0;"/><text fill="#000000" font-family="sans-serif" font-size="13" lengthAdjust="spacing" textLength="0" x="746" y="51.52"/><text fill="#000000" font-family="sans-serif" font-size="13" font-weight="bold" lengthAdjust="spacing" textLength="14" x="746" y="51.52">6.</text><text fill="#000000" font-family="sans-serif" font-size="13" lengthAdjust="spacing" textLength="140" x="714" y="66.6528">Knowledge consumer.</text><text fill="#000000" font-family="sans-serif" font-size="13" lengthAdjust="spacing" textLength="112" x="714" y="81.7856">Reads the Python</text><text fill="#000000" font-family="sans-serif" font-size="13" lengthAdjust="spacing" textLength="119" x="714" y="96.9185">data structure and</text><text fill="#000000" font-family="sans-serif" font-size="13" lengthAdjust="spacing" textLength="142" x="714" y="112.0513">creates LaTeX macros</text><text fill="#000000" font-family="sans-serif" font-size="13" lengthAdjust="spacing" textLength="92" x="714" y="127.1841">used in "living"</text><text fill="#000000" font-family="sans-serif" font-size="13" lengthAdjust="spacing" textLength="76" x="714" y="142.3169">documents.</text><path d="M919.5,570.4531 L919.5,625.8516 A0,0 0 0 0 919.5,625.8516 L1049.5,625.8516 A0,0 0 0 0 1049.5,625.8516 L1049.5,580.4531 L1039.5,570.4531 L988.5,570.4531 L984.5,491.0531 L980.5,570.4531 L919.5,570.4531 A0,0 0 0 0 919.5,570.4531 " fill="#FBFB77" filter="url(#fhnrlo8mt2w4m)" style="stroke:#A80036;stroke-width:1.0;"/><path d="M1039.5,570.4531 L1039.5,580.4531 L1049.5,580.4531 L1039.5,570.4531 " fill="#FBFB77" style="stroke:#A80036;stroke-width:1.0;"/><text fill="#000000" font-family="sans-serif" font-size="13" lengthAdjust="spacing" textLength="0" x="957.5" y="587.52"/><text fill="#000000" font-family="sans-serif" font-size="13" font-weight="bold" lengthAdjust="spacing" textLength="14" x="957.5" y="587.52">7.</text><text fill="#000000" font-family="sans-serif" font-size="13" lengthAdjust="spacing" textLength="60" x="925.5" y="602.6528">Output of</text><text fill="#000000" font-family="sans-serif" font-size="13" lengthAdjust="spacing" textLength="109" x="925.5" y="617.7856">LaTeXmacros.py.</text><path d="M906,49.4531 L906,135.1172 A0,0 0 0 0 906,135.1172 L980.5,135.1172 L984.5,254.6931 L988.5,135.1172 L1063,135.1172 A0,0 0 0 0 1063,135.1172 L1063,59.4531 L1053,49.4531 L906,49.4531 A0,0 0 0 0 906,49.4531 " fill="#FBFB77" filter="url(#fhnrlo8mt2w4m)" style="stroke:#A80036;stroke-width:1.0;"/><path d="M1053,49.4531 L1053,59.4531 L1063,59.4531 L1053,49.4531 " fill="#FBFB77" style="stroke:#A80036;stroke-width:1.0;"/><text fill="#000000" font-family="sans-serif" font-size="13" lengthAdjust="spacing" textLength="0" x="944" y="66.52"/><text fill="#000000" font-family="sans-serif" font-size="13" font-weight="bold" lengthAdjust="spacing" textLength="14" x="944" y="66.52">8.</text><text fill="#000000" font-family="sans-serif" font-size="13" lengthAdjust="spacing" textLength="109" x="912" y="81.6528">Living document.</text><text fill="#000000" font-family="sans-serif" font-size="13" lengthAdjust="spacing" textLength="89" x="912" y="96.7856">A "user" of file</text><text fill="#000000" font-family="sans-serif" font-size="13" lengthAdjust="spacing" textLength="136" x="912" y="111.9185">macros.tex produced</text><text fill="#000000" font-family="sans-serif" font-size="13" lengthAdjust="spacing" textLength="128" x="912" y="127.0513">by LaTeXmacros.py.</text><path d="M1098,56.9531 L1098,127.4844 A0,0 0 0 0 1098,127.4844 L1173.3,127.4844 L1176.64,246.4331 L1181.3,127.4844 L1257,127.4844 A0,0 0 0 0 1257,127.4844 L1257,66.9531 L1247,56.9531 L1098,56.9531 A0,0 0 0 0 1098,56.9531 " fill="#FBFB77" filter="url(#fhnrlo8mt2w4m)" style="stroke:#A80036;stroke-width:1.0;"/><path d="M1247,56.9531 L1247,66.9531 L1257,66.9531 L1247,56.9531 " fill="#FBFB77" style="stroke:#A80036;stroke-width:1.0;"/><text fill="#000000" font-family="sans-serif" font-size="13" lengthAdjust="spacing" textLength="0" x="1136" y="74.02"/><text fill="#000000" font-family="sans-serif" font-size="13" font-weight="bold" lengthAdjust="spacing" textLength="14" x="1136" y="74.02">9.</text><text fill="#000000" font-family="sans-serif" font-size="13" lengthAdjust="spacing" textLength="84" x="1104" y="89.1528">External tool.</text><text fill="#000000" font-family="sans-serif" font-size="13" lengthAdjust="spacing" textLength="120" x="1104" y="104.2856">Compiles the living</text><text fill="#000000" font-family="sans-serif" font-size="13" lengthAdjust="spacing" textLength="138" x="1104" y="119.4185">document into a PDF.</text><path d="M1113.5,562.4531 L1113.5,632.9844 A0,0 0 0 0 1113.5,632.9844 L1239.5,632.9844 A0,0 0 0 0 1239.5,632.9844 L1239.5,572.4531 L1229.5,562.4531 L1180.5,562.4531 L1176.5,491.0531 L1172.5,562.4531 L1113.5,562.4531 A0,0 0 0 0 1113.5,562.4531 " fill="#FBFB77" filter="url(#fhnrlo8mt2w4m)" style="stroke:#A80036;stroke-width:1.0;"/><path d="M1229.5,562.4531 L1229.5,572.4531 L1239.5,572.4531 L1229.5,562.4531 " fill="#FBFB77" style="stroke:#A80036;stroke-width:1.0;"/><text fill="#000000" font-family="sans-serif" font-size="13" lengthAdjust="spacing" textLength="0" x="1151.5" y="579.52"/><text fill="#000000" font-family="sans-serif" font-size="13" font-weight="bold" lengthAdjust="spacing" textLength="23" x="1151.5" y="579.52">10.</text><text fill="#000000" font-family="sans-serif" font-size="13" lengthAdjust="spacing" textLength="105" x="1119.5" y="594.6528">Living document</text><text fill="#000000" font-family="sans-serif" font-size="13" lengthAdjust="spacing" textLength="86" x="1119.5" y="609.7856">compiled into</text><text fill="#000000" font-family="sans-serif" font-size="13" lengthAdjust="spacing" textLength="63" x="1119.5" y="624.9185">a PDF file.</text><path d="M471,26.9531 L471,158.0156 A0,0 0 0 0 471,158.0156 L561.5,158.0156 L565.5,254.7031 L569.5,158.0156 L660,158.0156 A0,0 0 0 0 660,158.0156 L660,36.9531 L650,26.9531 L471,26.9531 A0,0 0 0 0 471,26.9531 " fill="#FBFB77" filter="url(#fhnrlo8mt2w4m)" style="stroke:#A80036;stroke-width:1.0;"/><path d="M650,26.9531 L650,36.9531 L660,36.9531 L650,26.9531 " fill="#FBFB77" style="stroke:#A80036;stroke-width:1.0;"/><text fill="#000000" font-family="sans-serif" font-size="13" lengthAdjust="spacing" textLength="0" x="509" y="44.02"/><text fill="#000000" font-family="sans-serif" font-size="13" font-weight="bold" lengthAdjust="spacing" textLength="23" x="509" y="44.02">11.</text><text fill="#000000" font-family="sans-serif" font-size="13" lengthAdjust="spacing" textLength="140" x="477" y="59.1528">Knowledge consumer.</text><text fill="#000000" font-family="sans-serif" font-size="13" lengthAdjust="spacing" textLength="145" x="477" y="74.2856">Reads the Python data</text><text fill="#000000" font-family="sans-serif" font-size="13" lengthAdjust="spacing" textLength="149" x="477" y="89.4185">structure and produces</text><text fill="#000000" font-family="sans-serif" font-size="13" lengthAdjust="spacing" textLength="128" x="477" y="104.5513">a hierarchical repre-</text><text fill="#000000" font-family="sans-serif" font-size="13" lengthAdjust="spacing" textLength="138" x="477" y="119.6841">sentation of the linac,</text><text fill="#000000" font-family="sans-serif" font-size="13" lengthAdjust="spacing" textLength="140" x="477" y="134.8169">with leaves annotated</text><text fill="#000000" font-family="sans-serif" font-size="13" lengthAdjust="spacing" textLength="168" x="477" y="149.9497">with TraceWin statements.</text><path d="M551,570.4531 L551,625.8516 L814,625.8516 L814,580.4531 L804,570.4531 L551,570.4531 " fill="#FBFB77" filter="url(#fhnrlo8mt2w4m)" style="stroke:#A80036;stroke-width:1.0;"/><path d="M804,570.4531 L804,580.4531 L814,580.4531 L804,570.4531 " fill="#FBFB77" style="stroke:#A80036;stroke-width:1.0;"/><text fill="#000000" font-family="sans-serif" font-size="13" lengthAdjust="spacing" textLength="0" x="589" y="587.52"/><text fill="#000000" font-family="sans-serif" font-size="13" font-weight="bold" lengthAdjust="spacing" textLength="23" x="589" y="587.52">12.</text><text fill="#000000" font-family="sans-serif" font-size="13" lengthAdjust="spacing" textLength="242" x="557" y="602.6528">Hierarchical represention of the Linac,</text><text fill="#000000" font-family="sans-serif" font-size="13" lengthAdjust="spacing" textLength="238" x="557" y="617.7856">annotated with TraceWin statements.</text><!--MD5=[b59c444f7884fe9ab294eb58a746c5ca]
link tx to tw--><path d="M313.08,291.0731 C306.35,302.3731 297.55,317.6131 290.5,331.4531 C269.59,372.4831 248.29,421.9231 236.6,449.8631 " fill="none" id="tx-to-tw" style="stroke:#A80036;stroke-width:1.0;stroke-dasharray:7.0,7.0;"/><polygon fill="#A80036" points="234.53,454.8231,241.6734,448.0429,236.446,450.2048,234.2841,444.9773,234.53,454.8231" style="stroke:#A80036;stroke-width:1.0;"/><text fill="#000000" font-family="sans-serif" font-size="13" lengthAdjust="spacing" textLength="36" x="291.5" y="344.52">reads</text><!--MD5=[4b75cc23d3805271828175489631e49d]
link tx to md--><path d="M326.84,291.0231 C330.01,306.2631 335.21,329.0931 341.5,348.4531 C353.33,384.8531 371.1,425.6331 382.23,450.0331 " fill="none" id="tx-to-md" style="stroke:#A80036;stroke-width:1.0;"/><polygon fill="#A80036" points="384.37,454.6831,384.2617,444.8349,382.2892,450.1367,376.9874,448.1642,384.37,454.6831" style="stroke:#A80036;stroke-width:1.0;"/><text fill="#000000" font-family="sans-serif" font-size="13" lengthAdjust="spacing" textLength="37" x="342.5" y="344.52">writes</text><!--MD5=[a5a6aee8c2bf7cc946130eaf6c3500b0]
link fl to md--><path d="M113.8,291.0831 C143,308.5431 191.23,334.9031 236.5,348.4531 C264.81,356.9231 276.78,341.9031 302.5,356.4531 C340.78,378.1031 368.42,423.2331 382.32,450.2231 " fill="none" id="fl-to-md" style="stroke:#A80036;stroke-width:1.0;stroke-dasharray:7.0,7.0;"/><polygon fill="#A80036" points="384.6,454.7231,384.1025,444.8868,382.3411,450.2625,376.9654,448.5011,384.6,454.7231" style="stroke:#A80036;stroke-width:1.0;"/><text fill="#000000" font-family="sans-serif" font-size="13" lengthAdjust="spacing" textLength="36" x="237.5" y="344.52">reads</text><!--MD5=[3be13b861135dda0688b600423507ac1]
link fl to pl--><path d="M85.54,291.1731 C83.55,327.1031 78.94,409.9931 76.73,449.8131 " fill="none" id="fl-to-pl" style="stroke:#A80036;stroke-width:1.0;"/><polygon fill="#A80036" points="76.45,454.9131,80.9333,446.1439,76.7218,449.9205,72.9452,445.709,76.45,454.9131" style="stroke:#A80036;stroke-width:1.0;"/><text fill="#000000" font-family="sans-serif" font-size="13" lengthAdjust="spacing" textLength="37" x="84.5" y="344.52">writes</text><!--MD5=[4e02cbd9ba87f5e36a508679dd02ecaa]
link ltx to md--><path d="M786.87,290.9831 C782.09,308.7531 771.8,335.7531 751.5,348.4531 C726.15,364.3131 509.17,342.9331 482.5,356.4531 C443.06,376.4531 415.67,422.5931 402.16,450.1231 " fill="none" id="ltx-to-md" style="stroke:#A80036;stroke-width:1.0;stroke-dasharray:7.0,7.0;"/><polygon fill="#A80036" points="399.95,454.7031,407.4395,448.3072,402.1058,450.1917,400.2213,444.858,399.95,454.7031" style="stroke:#A80036;stroke-width:1.0;"/><text fill="#000000" font-family="sans-serif" font-size="13" lengthAdjust="spacing" textLength="36" x="768.5" y="344.52">reads</text><!--MD5=[9287a96ef8eb277e8dcfc931c3365fa2]
link ltx to mac--><path d="M807.38,291.1731 C843.01,327.5431 925.79,412.0331 964.22,451.2531 " fill="none" id="ltx-to-mac" style="stroke:#A80036;stroke-width:1.0;"/><polygon fill="#A80036" points="967.8,454.9131,964.3575,445.6855,964.3004,451.3421,958.6438,451.2849,967.8,454.9131" style="stroke:#A80036;stroke-width:1.0;"/><text fill="#000000" font-family="sans-serif" font-size="13" lengthAdjust="spacing" textLength="37" x="859.5" y="344.52">writes</text><!--MD5=[5dd153e71ed2f81091c2ce9abfe2b69e]
link pdflatex to mac--><path d="M1147.78,299.7431 C1130.3,315.7131 1107.7,336.8631 1088.5,356.4531 C1057.25,388.3331 1022.96,427.2431 1002.61,450.7831 " fill="none" id="pdflatex-to-mac" style="stroke:#A80036;stroke-width:1.0;stroke-dasharray:7.0,7.0;"/><polygon fill="#A80036" points="999.22,454.7131,1008.122,450.4995,1002.481,450.9229,1002.0577,445.2819,999.22,454.7131" style="stroke:#A80036;stroke-width:1.0;"/><text fill="#000000" font-family="sans-serif" font-size="13" lengthAdjust="spacing" textLength="36" x="1112.5" y="344.52">reads</text><!--MD5=[17ca4812bbcd5bc358bd67d1bccc03db]
link tdr to mac--><path d="M984.5,291.1731 C984.5,327.1031 984.5,409.9931 984.5,449.8131 " fill="none" id="tdr-to-mac" style="stroke:#A80036;stroke-width:1.0;stroke-dasharray:7.0,7.0;"/><polygon fill="#A80036" points="984.5,454.9131,988.5,445.9131,984.5,449.9131,980.5,445.9131,984.5,454.9131" style="stroke:#A80036;stroke-width:1.0;"/><text fill="#000000" font-family="sans-serif" font-size="13" lengthAdjust="spacing" textLength="52" x="985.5" y="344.52">includes</text><!--MD5=[6befd9cff55fd84d2d0b8850b5a46e6c]
link pdflatex to tdrpdf--><path d="M1176.5,299.8431 C1176.5,339.0031 1176.5,412.6631 1176.5,449.6131 " fill="none" id="pdflatex-to-tdrpdf" style="stroke:#A80036;stroke-width:1.0;"/><polygon fill="#A80036" points="1176.5,454.7931,1180.5,445.7931,1176.5,449.7931,1172.5,445.7931,1176.5,454.7931" style="stroke:#A80036;stroke-width:1.0;"/><text fill="#000000" font-family="sans-serif" font-size="13" lengthAdjust="spacing" textLength="37" x="1177.5" y="344.52">writes</text><!--MD5=[63c1c54cb09a043e730d39172caec4a0]
link linac to belownote--><path d="M682.5,491.0531 C682.5,511.5231 682.5,546.0231 682.5,570.0631 " fill="none" id="linac-belownote" style="stroke:#A80036;stroke-width:1.0;stroke-dasharray:7.0,7.0;"/><!--MD5=[c617e4bf13b240c073df0f2317d3dd6c]
link sub_linac to belownote--><path d="M580.54,499.7331 C602.26,520.4531 632.66,549.4331 654.6,570.3531 " fill="none" id="sub_linac-belownote" style="stroke:#A80036;stroke-width:1.0;stroke-dasharray:7.0,7.0;"/><!--MD5=[a8d9d99d5a6d5bae4d1d1f7aedf3e72d]
link tw_html to belownote--><path d="M775.76,499.7331 C755.89,520.4531 728.09,549.4331 708.02,570.3531 " fill="none" id="tw_html-belownote" style="stroke:#A80036;stroke-width:1.0;stroke-dasharray:7.0,7.0;"/><!--MD5=[afb0ae3a96c3d1438c1df61d444f8f1c]
link trace_svg to md--><path d="M545.17,291.0631 C532.44,302.1231 515.97,317.0831 502.5,331.4531 C465.51,370.9331 427.79,421.9431 407.55,450.3731 " fill="none" id="trace_svg-to-md" style="stroke:#A80036;stroke-width:1.0;stroke-dasharray:7.0,7.0;"/><polygon fill="#A80036" points="404.46,454.7331,412.9277,449.7034,407.3513,450.6538,406.4009,445.0774,404.46,454.7331" style="stroke:#A80036;stroke-width:1.0;"/><text fill="#000000" font-family="sans-serif" font-size="13" lengthAdjust="spacing" textLength="36" x="503.5" y="344.52">reads</text><!--MD5=[7e4d0d865ed30f0a1acaa7ae19d32a10]
link trace_svg to linac--><path d="M579.27,291.0631 C592.06,307.3431 611.21,332.8031 625.5,356.4531 C644.4,387.7231 662.39,426.1231 672.94,449.8131 " fill="none" id="trace_svg-to-linac" style="stroke:#A80036;stroke-width:1.0;"/><polygon fill="#A80036" points="675.07,454.6431,675.1015,444.7943,673.0539,450.0676,667.7806,448.0201,675.07,454.6431" style="stroke:#A80036;stroke-width:1.0;"/><text fill="#000000" font-family="sans-serif" font-size="13" lengthAdjust="spacing" textLength="37" x="620.5" y="344.52">writes</text><!--MD5=[1e1668f3fd905d03885563579c9e824e]
link trace_svg to sub_linac--><path d="M559.8,291.0931 C556.35,302.4031 552.27,317.6431 550.5,331.4531 C545.68,369.0431 547.81,412.7431 550.24,441.3031 " fill="none" id="trace_svg-to-sub_linac" style="stroke:#A80036;stroke-width:1.0;"/><polygon fill="#A80036" points="550.69,446.4531,553.8757,437.1337,550.2464,441.4728,545.9072,437.8435,550.69,446.4531" style="stroke:#A80036;stroke-width:1.0;"/><text fill="#000000" font-family="sans-serif" font-size="13" lengthAdjust="spacing" textLength="37" x="551.5" y="344.52">writes</text><!--MD5=[4bc9da0deec75ee89b4602cb5ad5fe24]
link trace_svg to tw_html--><path d="M593.64,291.0631 C621.85,307.6331 666.95,332.5031 708.5,348.4531 C721.78,353.5531 728.34,347.6331 739.5,356.4531 C766.8,378.0231 783.29,415.2331 792.12,441.5831 " fill="none" id="trace_svg-to-tw_html" style="stroke:#A80036;stroke-width:1.0;"/><polygon fill="#A80036" points="793.68,446.3731,794.673,436.5745,792.1203,441.6226,787.0722,439.0699,793.68,446.3731" style="stroke:#A80036;stroke-width:1.0;"/><text fill="#000000" font-family="sans-serif" font-size="13" lengthAdjust="spacing" textLength="37" x="709.5" y="344.52">writes</text><!--MD5=[4fab50119c4c7116d96096c5ae70be30]
@startuml
skinparam componentStyle rectangle
skinparam noteTextAlignment center
skinparam DefaultTextAlignment center
skinparam backgroundColor #EEEBDC
' skinparam handwritten true


title Tracex knowledge extractors and consumers

database "TraceWin" { 
    [ TraceWin.dat ] as tw #Yellow
} 

note bottom of tw
        **1.**
Input file.
end note

package "Tracex" {
    [Tracex.py] as tx
}

note top of tx
        **2.**
Knowledge extractor.
Produces the Python
data structure used
by all other packages.
end note

database "Py-modules" {
    [modules.py] as md #Green
}

note bottom of md
        **3.**
Python data structure
packaging the data in
the input file.
end note

tx ..> tw : reads
tx - -> md : writes

package "Flow" {
    [flow.py] as fl
}

note top of fl
        **4.**
Knowledge consumer.
Reads the Python
data structure and
creates a diagram
with a structured
description of the
TraceWin contents.
end note

database "SVG\nTraceView\ndiagram" {
    [flow.svg] as pl
}

note bottom of pl
        **5.**
Output of flow.py.
end note


fl ..> md : reads
fl - -> pl : writes

package "LaTeXmacros" {
    [LaTeXmacros.py] as ltx
}

note top of ltx
        **6.**
Knowledge consumer.
Reads the Python
data structure and
creates LaTeX macros
used in "living"
documents.
end note

database "macros.tex" {
    [macros.tex] as mac
}

note bottom of mac
        **7.**
Output of
LaTeXmacros.py.
end note


ltx ..> md  : reads
ltx - -> mac : writes

database "TDR sources" {
    [MINERVA-TDR.tex] as tdr
}

note top of tdr
        **8.**
Living document.
A "user" of file
macros.tex produced
by LaTeXmacros.py.
end note

package "LaTeX" {
    [LaTeX produ-\nction packages] as pdflatex
}

note top of pdflatex
        **9.**
External tool.
Compiles the living
document into a PDF.
end note

database "TDR" {
    [MINERVA-TDR.pdf] as tdrpdf
}

note bottom of tdrpdf
        **10.**
Living document
compiled into
a PDF file.
end note

pdflatex ..> mac    : reads
tdr      ..> mac    : includes
pdflatex - -> tdrpdf : writes

package "Trace SVG" {
    [trace_svg.py] as trace_svg
}

note top of trace_svg
        **11.**
Knowledge consumer.
Reads the Python data
structure and produces
a hierarchical repre-
sentation of the linac,
with leaves annotated
with TraceWin statements.
end note

database "SVG\nLinac\ndiagrams" {
    [linac.svg] as linac
    [sub-systems\ndiagrams] as sub_linac
    [html tran-\nscriptions] as tw_html
}

'note bottom of database
'        12.
'Hierarchical represention of the Linac,
'annotated with TraceWin statements.
'end note

note as belownote
        **12.**
Hierarchical represention of the Linac,
annotated with TraceWin statements.
end note

belownote .up. linac
belownote .up. sub_linac
belownote .up. tw_html

trace_svg ..> md        : reads
trace_svg - -> linac     : writes
trace_svg - -> sub_linac : writes
trace_svg - -> tw_html   : writes

url of linac is [[http://tdr.myrrha.lan/vfolders/tracex/linac.svg]]
url of pl    is [[http://tdr.myrrha.lan/vfolders/tracex/flow.svg]]

@enduml

@startuml
skinparam componentStyle rectangle
skinparam noteTextAlignment center
skinparam DefaultTextAlignment center
skinparam backgroundColor #EEEBDC


title Tracex knowledge extractors and consumers

database "TraceWin" { 
    [ TraceWin.dat ] as tw #Yellow
} 

note bottom of tw
        **1.**
Input file.
end note

package "Tracex" {
    [Tracex.py] as tx
}

note top of tx
        **2.**
Knowledge extractor.
Produces the Python
data structure used
by all other packages.
end note

database "Py-modules" {
    [modules.py] as md #Green
}

note bottom of md
        **3.**
Python data structure
packaging the data in
the input file.
end note

tx ..> tw : reads
tx - -> md : writes

package "Flow" {
    [flow.py] as fl
}

note top of fl
        **4.**
Knowledge consumer.
Reads the Python
data structure and
creates a diagram
with a structured
description of the
TraceWin contents.
end note

database "SVG\nTraceView\ndiagram" {
    [flow.svg] as pl
}

note bottom of pl
        **5.**
Output of flow.py.
end note


fl ..> md : reads
fl - -> pl : writes

package "LaTeXmacros" {
    [LaTeXmacros.py] as ltx
}

note top of ltx
        **6.**
Knowledge consumer.
Reads the Python
data structure and
creates LaTeX macros
used in "living"
documents.
end note

database "macros.tex" {
    [macros.tex] as mac
}

note bottom of mac
        **7.**
Output of
LaTeXmacros.py.
end note


ltx ..> md  : reads
ltx - -> mac : writes

database "TDR sources" {
    [MINERVA-TDR.tex] as tdr
}

note top of tdr
        **8.**
Living document.
A "user" of file
macros.tex produced
by LaTeXmacros.py.
end note

package "LaTeX" {
    [LaTeX produ-\nction packages] as pdflatex
}

note top of pdflatex
        **9.**
External tool.
Compiles the living
document into a PDF.
end note

database "TDR" {
    [MINERVA-TDR.pdf] as tdrpdf
}

note bottom of tdrpdf
        **10.**
Living document
compiled into
a PDF file.
end note

pdflatex ..> mac    : reads
tdr      ..> mac    : includes
pdflatex - -> tdrpdf : writes

package "Trace SVG" {
    [trace_svg.py] as trace_svg
}

note top of trace_svg
        **11.**
Knowledge consumer.
Reads the Python data
structure and produces
a hierarchical repre-
sentation of the linac,
with leaves annotated
with TraceWin statements.
end note

database "SVG\nLinac\ndiagrams" {
    [linac.svg] as linac
    [sub-systems\ndiagrams] as sub_linac
    [html tran-\nscriptions] as tw_html
}


note as belownote
        **12.**
Hierarchical represention of the Linac,
annotated with TraceWin statements.
end note

belownote .up. linac
belownote .up. sub_linac
belownote .up. tw_html

trace_svg ..> md        : reads
trace_svg - -> linac     : writes
trace_svg - -> sub_linac : writes
trace_svg - -> tw_html   : writes

url of linac is [[http://tdr.myrrha.lan/vfolders/tracex/linac.svg]]
url of pl    is [[http://tdr.myrrha.lan/vfolders/tracex/flow.svg]]

@enduml

PlantUML version 1.2021.5(Sun Apr 25 13:20:28 CEST 2021)
(GPL source distribution)
Java Runtime: OpenJDK Runtime Environment
JVM: OpenJDK 64-Bit Server VM
Default Encoding: UTF-8
Language: en
Country: US
--></g></svg>