\babel@toc {english}{}
\babel@toc {english}{}
\contentsline {part}{I\hspace {1em}Introduction}{21}{part.1}% 
\contentsline {section}{\numberline {\leavevmode {\color {blue}1}}General Introduction}{23}{section.0.1}% 
\contentsline {subsection}{\numberline {\leavevmode {\color {blue}1.1}}Structure of the present TDR}{25}{subsection.0.1.1}% 
\contentsline {section}{\numberline {\leavevmode {\color {blue}2}}MYRRHA Project Overview}{26}{section.0.2}% 
\contentsline {section}{\numberline {\leavevmode {\color {blue}3}}MYRRHA Project History}{27}{section.0.3}% 
\contentsline {subsection}{\numberline {\leavevmode {\color {blue}3.1}}The PDS-XADS Project}{27}{subsection.0.3.1}% 
\contentsline {subsection}{\numberline {\leavevmode {\color {blue}3.2}}The EUROTRANS Project}{27}{subsection.0.3.2}% 
\contentsline {subsection}{\numberline {\leavevmode {\color {blue}3.3}}The CDT/FASTEF Project}{28}{subsection.0.3.3}% 
\contentsline {subsection}{\numberline {\leavevmode {\color {blue}3.4}}The MAX Project}{29}{subsection.0.3.4}% 
\contentsline {subsection}{\numberline {\leavevmode {\color {blue}3.5}}The MARISA Project}{29}{subsection.0.3.5}% 
\contentsline {subsection}{\numberline {\leavevmode {\color {blue}3.6}}The MYRTE Project}{30}{subsection.0.3.6}% 
\contentsline {subsection}{\numberline {\leavevmode {\color {blue}3.7}}Return on Experience from Other Projects}{30}{subsection.0.3.7}% 
\contentsline {subsubsection}{\numberline {3.7.1}Reliability analysis of the SNS linac}{31}{subsubsection.0.3.7.1}% 
\contentsline {subsubsection}{\numberline {3.7.2}Accelerator operation in the GUINEVERE experiment}{31}{subsubsection.0.3.7.2}% 
\contentsline {subsection}{\numberline {\leavevmode {\color {blue}3.8}}Recent Design Evolution}{32}{subsection.0.3.8}% 
\contentsline {section}{\numberline {\leavevmode {\color {blue}4}}MYRRHA Accelerator Overview}{32}{section.0.4}% 
\contentsline {subsection}{\numberline {\leavevmode {\color {blue}4.1}}Accelerator design}{32}{subsection.0.4.1}% 
\contentsline {subsection}{\numberline {\leavevmode {\color {blue}4.2}}Accelerator general performance}{35}{subsection.0.4.2}% 
\contentsline {subsection}{\numberline {\leavevmode {\color {blue}4.3}}Reliability and availability}{35}{subsection.0.4.3}% 
\contentsline {subsection}{\numberline {\leavevmode {\color {blue}4.4}}Operation}{36}{subsection.0.4.4}% 
\contentsline {section}{\numberline {\leavevmode {\color {blue}5}}The Phases of the Accelerator Project}{36}{section.0.5}% 
\contentsline {subsection}{\numberline {\leavevmode {\color {blue}5.1}}Introduction}{36}{subsection.0.5.1}% 
\contentsline {subsection}{\numberline {\leavevmode {\color {blue}5.2}}Decision to complete the ADS design}{36}{subsection.0.5.2}% 
\contentsline {subsection}{\numberline {\leavevmode {\color {blue}5.3}}Full ADS configuration}{36}{subsection.0.5.3}% 
\contentsline {section}{\numberline {\leavevmode {\color {blue}6}}The 100 MeV Accelerator Overview}{36}{section.0.6}% 
\contentsline {subsection}{\numberline {\leavevmode {\color {blue}6.1}}Single injector front end (1.5 MeV)}{37}{subsection.0.6.1}% 
\contentsline {subsection}{\numberline {\leavevmode {\color {blue}6.2}}Single injector (5.9 MeV)}{37}{subsection.0.6.2}% 
\contentsline {subsection}{\numberline {\leavevmode {\color {blue}6.3}}Single injector and 100 MeV accelerator}{38}{subsection.0.6.3}% 
\contentsline {section}{\numberline {\leavevmode {\color {blue}7}}Radiation Protection}{38}{section.0.7}% 
\contentsline {subsection}{\numberline {\leavevmode {\color {blue}7.1}}Introduction}{38}{subsection.0.7.1}% 
\contentsline {subsection}{\numberline {\leavevmode {\color {blue}7.2}}Basic Radiation Protection Principles}{38}{subsection.0.7.2}% 
\contentsline {subsection}{\numberline {\leavevmode {\color {blue}7.3}}Global Approach of the MYRRHA Project Optimisation}{40}{subsection.0.7.3}% 
\contentsline {subsubsection}{\numberline {7.3.1}Global description}{40}{subsubsection.0.7.3.1}% 
\contentsline {subsubsection}{\numberline {7.3.2}Design Stage (DS)}{40}{subsubsection.0.7.3.2}% 
\contentsline {subsubsection}{\numberline {7.3.3}Provisions for the Operational Stage (OS)}{42}{subsubsection.0.7.3.3}% 
\contentsline {subsubsection}{\numberline {7.3.4}Maintenance, Repair, Decontamination (MRD)}{42}{subsubsection.0.7.3.4}% 
\contentsline {subsubsection}{\numberline {7.3.5}Provisions for the Dismantling Operations (DO)}{43}{subsubsection.0.7.3.5}% 
\contentsline {subsubsection}{\numberline {7.3.6}Conclusions}{43}{subsubsection.0.7.3.6}% 
\contentsline {subsection}{\numberline {\leavevmode {\color {blue}7.4}}ALARA Engineering Design Principles}{43}{subsection.0.7.4}% 
\contentsline {subsubsection}{\numberline {7.4.1}Introduction}{43}{subsubsection.0.7.4.1}% 
\contentsline {paragraph}{Assessing radiation doses.}{43}{section*.17}% 
\contentsline {paragraph}{Assessing radiation doses: workers and time.}{43}{section*.18}% 
\contentsline {paragraph}{Assessing radiation doses: multiple sources.}{43}{section*.19}% 
\contentsline {paragraph}{Assessing radiation doses: remote operations.}{44}{section*.20}% 
\contentsline {paragraph}{Assessing radiation doses: isolation areas.}{44}{section*.21}% 
\contentsline {paragraph}{Access control.}{44}{section*.22}% 
\contentsline {paragraph}{Access control: sequential areas.}{44}{section*.23}% 
\contentsline {paragraph}{General access and controlled areas.}{44}{section*.24}% 
\contentsline {paragraph}{General access and controlled areas: general access.}{44}{section*.25}% 
\contentsline {paragraph}{General access and controlled areas: controlled areas.}{44}{section*.26}% 
\contentsline {paragraph}{General access and controlled areas: radiation area.}{44}{section*.27}% 
\contentsline {paragraph}{General access and controlled areas: buffer/contingent areas.}{44}{section*.28}% 
\contentsline {paragraph}{Traffic.}{44}{section*.29}% 
\contentsline {paragraph}{Access.}{45}{section*.30}% 
\contentsline {paragraph}{Radiation areas.}{45}{section*.31}% 
\contentsline {subsubsection}{\numberline {7.4.2}Contamination control design}{45}{subsubsection.0.7.4.2}% 
\contentsline {paragraph}{Contamination control.}{45}{section*.32}% 
\contentsline {paragraph}{Decontamination.}{46}{section*.33}% 
\contentsline {subsubsection}{\numberline {7.4.3}Radioactive waste}{46}{subsubsection.0.7.4.3}% 
\contentsline {paragraph}{Temporary radioactive waste storage.}{46}{section*.34}% 
\contentsline {paragraph}{Bulk radioactive waste storage.}{46}{section*.35}% 
\contentsline {paragraph}{Transport.}{46}{section*.36}% 
\contentsline {paragraph}{Drainage of liquid systems.}{47}{section*.37}% 
\contentsline {paragraph}{Monitoring.}{47}{section*.38}% 
\contentsline {paragraph}{Fire suppression.}{47}{section*.39}% 
\contentsline {subsubsection}{\numberline {7.4.4}Shielding, penetrations and routing}{47}{subsubsection.0.7.4.4}% 
\contentsline {paragraph}{Shielding.}{47}{section*.40}% 
\contentsline {paragraph}{Penetrations.}{47}{section*.41}% 
\contentsline {paragraph}{Routing of ducts, pipes, cables and conduits (DPCs).}{48}{section*.42}% 
\contentsline {subsubsection}{\numberline {7.4.5}Separation, segregation, placement and isolation}{48}{subsubsection.0.7.4.5}% 
\contentsline {paragraph}{Separation.}{48}{section*.43}% 
\contentsline {paragraph}{Segregation.}{48}{section*.44}% 
\contentsline {paragraph}{Placement.}{48}{section*.45}% 
\contentsline {paragraph}{Isolation.}{48}{section*.46}% 
\contentsline {paragraph}{Redundancy}{49}{section*.47}% 
\contentsline {subsubsection}{\numberline {7.4.6}Accessibility, lay down and storage}{49}{subsubsection.0.7.4.6}% 
\contentsline {paragraph}{Accessibility.}{49}{section*.48}% 
\contentsline {paragraph}{Lay down and storage.}{49}{section*.49}% 
\contentsline {subsubsection}{\numberline {7.4.7}Snubber, strut, hanger and anchor}{49}{subsubsection.0.7.4.7}% 
\contentsline {subsubsection}{\numberline {7.4.8}Human factors}{49}{subsubsection.0.7.4.8}% 
\contentsline {paragraph}{Visual factors:}{50}{section*.50}% 
\contentsline {paragraph}{Auditory factors:}{50}{section*.51}% 
\contentsline {paragraph}{Human physical characteristics.}{50}{section*.52}% 
\contentsline {paragraph}{Help prevent human error.}{50}{section*.53}% 
\contentsline {subsubsection}{\numberline {7.4.9}Operations, maintenance and inspection}{50}{subsubsection.0.7.4.9}% 
\contentsline {paragraph}{Operations}{51}{section*.54}% 
\contentsline {paragraph}{Maintenance}{51}{section*.55}% 
\contentsline {paragraph}{Inspection}{51}{section*.56}% 
\contentsline {subsection}{\numberline {\leavevmode {\color {blue}7.5}}Decommissioning: Lessons Learnt}{52}{subsection.0.7.5}% 
\contentsline {subsubsection}{\numberline {7.5.1}Design features to facilitate the decommissioning}{52}{subsubsection.0.7.5.1}% 
\contentsline {subsubsection}{\numberline {7.5.2}Facility design and operational design factors}{52}{subsubsection.0.7.5.2}% 
\contentsline {subsubsection}{\numberline {7.5.3}Policy, project and regulatory factors}{52}{subsubsection.0.7.5.3}% 
\contentsline {part}{II\hspace {1em}Main components}{53}{part.2}% 
\contentsline {section}{\numberline {\leavevmode {\color {blue}8}}Injector}{55}{section.0.8}% 
\contentsline {subsection}{\numberline {\leavevmode {\color {blue}8.1}}Introduction}{55}{subsection.0.8.1}% 
\contentsline {subsection}{\numberline {\leavevmode {\color {blue}8.2}}Injector Front End Section}{56}{subsection.0.8.2}% 
\contentsline {subsubsection}{\numberline {8.2.1}Ion source and extraction}{57}{subsubsection.0.8.2.1}% 
\contentsline {subsubsection}{\numberline {8.2.2}LEBT and Chopper}{57}{subsubsection.0.8.2.2}% 
\contentsline {paragraph}{Design studies.}{58}{section*.62}% 
\contentsline {paragraph}{High-intensity low-energy beams: space charge and emittance growth.}{60}{section*.67}% 
\contentsline {paragraph}{High Intensity and low energy ion beams: space charge compensation.}{61}{section*.68}% 
\contentsline {paragraph}{The MYRRHA LEBT.}{61}{section*.70}% 
\contentsline {paragraph}{Experimental results: main objective.}{63}{section*.73}% 
\contentsline {paragraph}{Experimental results: analysis tool development.}{63}{section*.74}% 
\contentsline {paragraph}{Experimental results: influence of the Residual Gas pressure.}{64}{section*.77}% 
\contentsline {subsubsection}{\numberline {8.2.3}Vacuum pumps}{66}{subsubsection.0.8.2.3}% 
\contentsline {subsubsection}{\numberline {8.2.4}Solenoid magnets}{66}{subsubsection.0.8.2.4}% 
\contentsline {subsubsection}{\numberline {8.2.5}Steerers}{66}{subsubsection.0.8.2.5}% 
\contentsline {subsubsection}{\numberline {8.2.6}Chopper}{66}{subsubsection.0.8.2.6}% 
\contentsline {subsubsection}{\numberline {8.2.7}Collimator cone}{66}{subsubsection.0.8.2.7}% 
\contentsline {subsubsection}{\numberline {8.2.8}AC current transformer (ACCT)}{66}{subsubsection.0.8.2.8}% 
\contentsline {subsubsection}{\numberline {8.2.9}Radio-Frequency Quadrupole (RFQ)}{67}{subsubsection.0.8.2.9}% 
\contentsline {subsection}{\numberline {\leavevmode {\color {blue}8.3}}Injector Booster Section}{70}{subsection.0.8.3}% 
\contentsline {subsubsection}{\numberline {8.3.1}MEBT1 \& MEBT2}{70}{subsubsection.0.8.3.1}% 
\contentsline {subsubsection}{\numberline {8.3.2}CH cavities}{71}{subsubsection.0.8.3.2}% 
\contentsline {paragraph}{Beam dynamics.}{72}{section*.89}% 
\contentsline {paragraph}{Sensitivity analysis.}{72}{section*.93}% 
\contentsline {subsubsection}{\numberline {8.3.3}Focusing magnets}{77}{subsubsection.0.8.3.3}% 
\contentsline {subsection}{\numberline {\leavevmode {\color {blue}8.4}}Longitudinal Phase \& Rebunching}{77}{subsection.0.8.4}% 
\contentsline {subsubsection}{\numberline {8.4.1}Longitudinal Phase}{77}{subsubsection.0.8.4.1}% 
\contentsline {subsubsection}{\numberline {8.4.2}Rebunching}{78}{subsubsection.0.8.4.2}% 
\contentsline {subsection}{\numberline {\leavevmode {\color {blue}8.5}}Beam Instrumentation}{80}{subsection.0.8.5}% 
\contentsline {section}{\numberline {\leavevmode {\color {blue}9}}Medium Energy Beam Transport Line 3}{80}{section.0.9}% 
\contentsline {subsection}{\numberline {\leavevmode {\color {blue}9.1}}}{80}{subsection.0.9.1}% 
\contentsline {subsection}{\numberline {\leavevmode {\color {blue}9.2}}}{81}{subsection.0.9.2}% 
\contentsline {subsection}{\numberline {\leavevmode {\color {blue}9.3}}}{82}{subsection.0.9.3}% 
\contentsline {subsection}{\numberline {\leavevmode {\color {blue}9.4}}Summary}{84}{subsection.0.9.4}% 
\contentsline {subsection}{\numberline {\leavevmode {\color {blue}9.5}}Rebunchers}{85}{subsection.0.9.5}% 
\contentsline {subsection}{\numberline {\leavevmode {\color {blue}9.6}}Dipole Magnets}{86}{subsection.0.9.6}% 
\contentsline {subsubsection}{\numberline {9.6.1}Purpose}{86}{subsubsection.0.9.6.1}% 
\contentsline {subsubsection}{\numberline {9.6.2}Design aspects}{87}{subsubsection.0.9.6.2}% 
\contentsline {subsubsection}{\numberline {9.6.3}Preliminary data for design}{88}{subsubsection.0.9.6.3}% 
\contentsline {subsection}{\numberline {\leavevmode {\color {blue}9.7}}70 kW Beam Dumps}{88}{subsection.0.9.7}% 
\contentsline {subsubsection}{\numberline {9.7.1}Preliminary analysis}{88}{subsubsection.0.9.7.1}% 
\contentsline {subsubsection}{\numberline {9.7.2}Beam dump technology}{89}{subsubsection.0.9.7.2}% 
\contentsline {subsubsection}{\numberline {9.7.3}A few examples of design}{91}{subsubsection.0.9.7.3}% 
\contentsline {subsubsection}{\numberline {9.7.4}A few examples of realisation}{92}{subsubsection.0.9.7.4}% 
\contentsline {subsubsection}{\numberline {9.7.5}Specific constraints for MYRRHA injector section beam dump}{93}{subsubsection.0.9.7.5}% 
\contentsline {section}{\numberline {\leavevmode {\color {blue}10}}Main Linac}{94}{section.0.10}% 
\contentsline {subsection}{\numberline {\leavevmode {\color {blue}10.1}}Introduction}{94}{subsection.0.10.1}% 
\contentsline {subsection}{\numberline {\leavevmode {\color {blue}10.2}}Linac design}{96}{subsection.0.10.2}% 
\contentsline {subsection}{\numberline {\leavevmode {\color {blue}10.3}}Beam dynamics simulation results}{100}{subsection.0.10.3}% 
\contentsline {subsection}{\numberline {\leavevmode {\color {blue}10.4}}Sensitivity analysis}{104}{subsection.0.10.4}% 
\contentsline {subsubsection}{\numberline {10.4.1}Sensitivity to input beam distribution}{105}{subsubsection.0.10.4.1}% 
\contentsline {subsubsection}{\numberline {10.4.2}Sensitivity to beam mismatch}{105}{subsubsection.0.10.4.2}% 
\contentsline {subsubsection}{\numberline {10.4.3}Sensitivity to current change}{106}{subsubsection.0.10.4.3}% 
\contentsline {subsubsection}{\numberline {10.4.4}Sensitivity to longitudinal errors}{107}{subsubsection.0.10.4.4}% 
\contentsline {subsubsection}{\numberline {10.4.5}Sensitivity to HOM excitation}{107}{subsubsection.0.10.4.5}% 
\contentsline {subsubsection}{\numberline {10.4.6}Sensitivity to cavities gradient spread}{108}{subsubsection.0.10.4.6}% 
\contentsline {subsection}{\numberline {\leavevmode {\color {blue}10.5}}Tolerance to RF or focusing failures}{108}{subsection.0.10.5}% 
\contentsline {subsubsection}{\numberline {10.5.1}RF fault-recovery using local compensation}{108}{subsubsection.0.10.5.1}% 
\contentsline {subsubsection}{\numberline {10.5.2}Focusing fault-recovery}{111}{subsubsection.0.10.5.2}% 
\contentsline {subsubsection}{\numberline {10.5.3}Assessment of an alternative RF fault-recovery strategy}{112}{subsubsection.0.10.5.3}% 
\contentsline {subsection}{\numberline {\leavevmode {\color {blue}10.6}}Linac Focusing Lattice}{113}{subsection.0.10.6}% 
\contentsline {section}{\numberline {\leavevmode {\color {blue}11}}High Energy Beam Transport Line}{113}{section.0.11}% 
\contentsline {subsection}{\numberline {\leavevmode {\color {blue}11.1}}Introduction}{113}{subsection.0.11.1}% 
\contentsline {subsection}{\numberline {\leavevmode {\color {blue}11.2}}HEBT reference layout}{114}{subsection.0.11.2}% 
\contentsline {subsubsection}{\numberline {11.2.1}Specifications}{114}{subsubsection.0.11.2.1}% 
\contentsline {subsubsection}{\numberline {11.2.2}Layout}{114}{subsubsection.0.11.2.2}% 
\contentsline {subsection}{\numberline {\leavevmode {\color {blue}11.3}}HEBT to the sub-critical reactor}{114}{subsection.0.11.3}% 
\contentsline {subsubsection}{\numberline {11.3.1}Beam dynamics in the HEBT}{115}{subsubsection.0.11.3.1}% 
\contentsline {paragraph}{Beam at the Object point.}{115}{section*.151}% 
\contentsline {subsubsection}{\numberline {11.3.2}Transfer Matrix}{116}{subsubsection.0.11.3.2}% 
\contentsline {paragraph}{Dispersion.}{116}{section*.154}% 
\contentsline {paragraph}{RMS normalised emittance.}{117}{section*.156}% 
\contentsline {paragraph}{RMS Transverse beam size.}{117}{section*.158}% 
\contentsline {paragraph}{Beam on Target}{117}{section*.161}% 
\contentsline {subsubsection}{\numberline {11.3.3}Error Analysis}{117}{subsubsection.0.11.3.3}% 
\contentsline {paragraph}{Conclusion.}{118}{section*.163}% 
\contentsline {subsection}{\numberline {\leavevmode {\color {blue}11.4}}AC magnets}{118}{subsection.0.11.4}% 
\contentsline {subsection}{\numberline {\leavevmode {\color {blue}11.5}}Secondary Window}{120}{subsection.0.11.5}% 
\contentsline {subsubsection}{\numberline {11.5.1}Safety concerns and provision}{120}{subsubsection.0.11.5.1}% 
\contentsline {subsubsection}{\numberline {11.5.2}Radiatively-cooled window}{120}{subsubsection.0.11.5.2}% 
\contentsline {subsubsection}{\numberline {11.5.3}Evaluation of the beam optics through the window}{122}{subsubsection.0.11.5.3}% 
\contentsline {subsubsection}{\numberline {11.5.4}Secondary window radiation damage}{125}{subsubsection.0.11.5.4}% 
\contentsline {subsection}{\numberline {\leavevmode {\color {blue}11.6}}HEBT to the full-power beam dump}{126}{subsection.0.11.6}% 
\contentsline {subsubsection}{\numberline {11.6.1}Beam line to dump}{126}{subsubsection.0.11.6.1}% 
\contentsline {subsubsection}{\numberline {11.6.2}Beam dump vault}{127}{subsubsection.0.11.6.2}% 
\contentsline {paragraph}{Beam dump handling.}{128}{section*.175}% 
\contentsline {paragraph}{Shielding issues around the beam dump.}{128}{section*.177}% 
\contentsline {subsubsection}{\numberline {11.6.3}Activation aspects}{128}{subsubsection.0.11.6.3}% 
\contentsline {paragraph}{Double differential neutron yields, dose rates and specific activities from irradiated thick materials.}{128}{section*.178}% 
\contentsline {paragraph}{Double differential neutron yields}{128}{section*.180}% 
\contentsline {paragraph}{Residual dose rates.}{130}{section*.184}% 
\contentsline {paragraph}{Specific activities.}{131}{section*.188}% 
\contentsline {paragraph}{Dose rates due to beam losses along the beam-line.}{132}{section*.192}% 
\contentsline {subsubsection}{\numberline {11.6.4}Optimisation of the beam dump zone}{132}{subsubsection.0.11.6.4}% 
\contentsline {paragraph}{Residual dose rates for specific activities.}{134}{section*.195}% 
\contentsline {subsection}{\numberline {\leavevmode {\color {blue}11.7}}HEBT to the Proton Target Facility}{136}{subsection.0.11.7}% 
\contentsline {subsubsection}{\numberline {11.7.1}Beam time structure}{136}{subsubsection.0.11.7.1}% 
\contentsline {subsubsection}{\numberline {11.7.2}Beam line to the PTF}{136}{subsubsection.0.11.7.2}% 
\contentsline {subsubsection}{\numberline {11.7.3}Kicker magnet}{136}{subsubsection.0.11.7.3}% 
\contentsline {section}{\numberline {\leavevmode {\color {blue}12}}Reactor Window and Spallation Target}{136}{section.0.12}% 
\contentsline {subsection}{\numberline {\leavevmode {\color {blue}12.1}}Target Window (aka Reactor Window)}{136}{subsection.0.12.1}% 
\contentsline {subsubsection}{\numberline {12.1.1}Spallation target assembly}{137}{subsubsection.0.12.1.1}% 
\contentsline {paragraph}{Functional requirements.}{137}{section*.200}% 
\contentsline {paragraph}{Description.}{137}{section*.201}% 
\contentsline {paragraph}{Beam window.}{137}{section*.202}% 
\contentsline {paragraph}{Beam tube.}{137}{section*.203}% 
\contentsline {subsubsection}{\numberline {12.1.2}Design requirements}{137}{subsubsection.0.12.1.2}% 
\contentsline {paragraph}{Thermal requirements.}{137}{section*.204}% 
\contentsline {paragraph}{Material requirements.}{137}{section*.205}% 
\contentsline {paragraph}{Normal operation.}{137}{section*.206}% 
\contentsline {paragraph}{Off normal operation.}{138}{section*.207}% 
\contentsline {subsubsection}{\numberline {12.1.3}Thermal design}{138}{subsubsection.0.12.1.3}% 
\contentsline {paragraph}{Window thermal design.}{138}{section*.208}% 
\contentsline {paragraph}{Beam shape.}{138}{section*.209}% 
\contentsline {subsubsection}{\numberline {12.1.4}Mechanical design}{138}{subsubsection.0.12.1.4}% 
\contentsline {subsubsection}{\numberline {12.1.5}Thermo-hydraulic considerations}{139}{subsubsection.0.12.1.5}% 
\contentsline {paragraph}{First design of the target zone assembly.}{139}{section*.211}% 
\contentsline {paragraph}{Second design of the target zone assembly.}{139}{section*.212}% 
\contentsline {subsection}{\numberline {\leavevmode {\color {blue}12.2}}Beam Monitoring on the Target}{140}{subsection.0.12.2}% 
\contentsline {subsubsection}{\numberline {12.2.1}The case of VIMOS at SINQ}{140}{subsubsection.0.12.2.1}% 
\contentsline {subsubsection}{\numberline {12.2.2}The case of beam on target at SNS}{142}{subsubsection.0.12.2.2}% 
\contentsline {subsubsection}{\numberline {12.2.3}MYRRHA}{142}{subsubsection.0.12.2.3}% 
\contentsline {subsection}{\numberline {\leavevmode {\color {blue}12.3}}Secondary window}{143}{subsection.0.12.3}% 
\contentsline {section}{\numberline {\leavevmode {\color {blue}13}}Proton Target Beam Lines}{143}{section.0.13}% 
\contentsline {subsection}{\numberline {\leavevmode {\color {blue}13.1}}Introduction}{143}{subsection.0.13.1}% 
\contentsline {subsection}{\numberline {\leavevmode {\color {blue}13.2}}Extraction Towards Proton Target Stations (600~MeV)}{143}{subsection.0.13.2}% 
\contentsline {subsection}{\numberline {\leavevmode {\color {blue}13.3}}Extraction Towards Proton Target Stations (100~MeV)}{144}{subsection.0.13.3}% 
\contentsline {subsection}{\numberline {\leavevmode {\color {blue}13.4}}Conclusions}{144}{subsection.0.13.4}% 
\contentsline {section}{\numberline {\leavevmode {\color {blue}14}}CH Cavities}{144}{section.0.14}% 
\contentsline {subsection}{\numberline {\leavevmode {\color {blue}14.1}}Modes \& Design}{145}{subsection.0.14.1}% 
\contentsline {section}{\numberline {\leavevmode {\color {blue}15}}Single-Spoke Cavities}{147}{section.0.15}% 
\contentsline {subsection}{\numberline {\leavevmode {\color {blue}15.1}}Introduction}{147}{subsection.0.15.1}% 
\contentsline {subsection}{\numberline {\leavevmode {\color {blue}15.2}}Electromagnetic Design}{148}{subsection.0.15.2}% 
\contentsline {subsubsection}{\numberline {15.2.1}Feedback from former Spoke cavity fabrication at IPNO}{148}{subsubsection.0.15.2.1}% 
\contentsline {subsubsection}{\numberline {15.2.2}RF optimisations}{148}{subsubsection.0.15.2.2}% 
\contentsline {subsection}{\numberline {\leavevmode {\color {blue}15.3}}RF coupler sizing}{150}{subsection.0.15.3}% 
\contentsline {subsection}{\numberline {\leavevmode {\color {blue}15.4}}Mechanical Design}{153}{subsection.0.15.4}% 
\contentsline {subsubsection}{\numberline {15.4.1}General description of the resonator}{153}{subsubsection.0.15.4.1}% 
\contentsline {paragraph}{The helium vessel.}{153}{section*.232}% 
\contentsline {paragraph}{Main dimensions.}{153}{section*.234}% 
\contentsline {paragraph}{Materials.}{153}{section*.236}% 
\contentsline {paragraph}{Operational conditions.}{153}{section*.238}% 
\contentsline {subsubsection}{\numberline {15.4.2}Mechanical Analysis}{155}{subsubsection.0.15.4.2}% 
\contentsline {paragraph}{Finite element model.}{156}{section*.239}% 
\contentsline {paragraph}{Loads and boundary conditions.}{156}{section*.241}% 
\contentsline {subsubsection}{\numberline {15.4.3}Stress analysis}{156}{subsubsection.0.15.4.3}% 
\contentsline {paragraph}{Leak tightness test during fabrication.}{156}{section*.242}% 
\contentsline {paragraph}{Bare cavity.}{156}{section*.243}% 
\contentsline {paragraph}{Cavity with its helium vessel.}{157}{section*.245}% 
\contentsline {paragraph}{Tests inside the cryomodule.}{157}{section*.248}% 
\contentsline {paragraph}{Cooling down to 4K.}{157}{section*.249}% 
\contentsline {paragraph}{Modal analysis.}{159}{section*.251}% 
\contentsline {subsubsection}{\numberline {15.4.4}Coupling Analysis}{159}{subsubsection.0.15.4.4}% 
\contentsline {paragraph}{Finite element model.}{161}{section*.254}% 
\contentsline {paragraph}{RF results.}{161}{section*.255}% 
\contentsline {paragraph}{RF sensitivity due to detuning.}{161}{section*.259}% 
\contentsline {paragraph}{RF sensitivity due to helium bath pressure fluctuations.}{163}{section*.261}% 
\contentsline {paragraph}{RF sensitivity due to Lorentz detuning.}{163}{section*.264}% 
\contentsline {subsubsection}{\numberline {15.4.5}Summary}{163}{subsubsection.0.15.4.5}% 
\contentsline {subsection}{\numberline {\leavevmode {\color {blue}15.5}}Prototype Test Results}{164}{subsection.0.15.5}% 
\contentsline {subsubsection}{\numberline {15.5.1}RF results}{164}{subsubsection.0.15.5.1}% 
\contentsline {subsubsection}{\numberline {15.5.2}Mechanical Results}{165}{subsubsection.0.15.5.2}% 
\contentsline {paragraph}{Sensitivity to helium bath pressure fluctuations.}{165}{section*.269}% 
\contentsline {paragraph}{Lorentz Force Factor.}{167}{section*.274}% 
\contentsline {subsubsection}{\numberline {15.5.3}Summary}{167}{subsubsection.0.15.5.3}% 
\contentsline {subsection}{\numberline {\leavevmode {\color {blue}15.6}}Cryomodules}{167}{subsection.0.15.6}% 
\contentsline {subsubsection}{\numberline {15.6.1}Cryomodule Conceptual Design}{167}{subsubsection.0.15.6.1}% 
\contentsline {paragraph}{Cryomodule main components.}{167}{section*.276}% 
\contentsline {paragraph}{Cryomodule operating temperature.}{170}{section*.279}% 
\contentsline {paragraph}{Review on different cryomodule designs.}{170}{section*.280}% 
\contentsline {subsubsection}{\numberline {15.6.2}Cryogenic layout}{170}{subsubsection.0.15.6.2}% 
\contentsline {subsubsection}{\numberline {15.6.3}Pressure safety}{173}{subsubsection.0.15.6.3}% 
\contentsline {subsubsection}{\numberline {15.6.4}Thermo-mechanical design}{174}{subsubsection.0.15.6.4}% 
\contentsline {subsubsection}{\numberline {15.6.5}Assembling process}{175}{subsubsection.0.15.6.5}% 
\contentsline {subsubsection}{\numberline {15.6.6}Vacuum}{179}{subsubsection.0.15.6.6}% 
\contentsline {paragraph}{Cryomodule vacuum vessel.}{179}{section*.294}% 
\contentsline {paragraph}{Cavity vacuum.}{179}{section*.295}% 
\contentsline {paragraph}{Vacuum in the hot sections.}{179}{section*.297}% 
\contentsline {subsubsection}{\numberline {15.6.7}Cold Tuning System}{180}{subsubsection.0.15.6.7}% 
\contentsline {paragraph}{Design parameters.}{180}{section*.298}% 
\contentsline {section}{\numberline {\leavevmode {\color {blue}16}}Double-Spoke Cavities}{181}{section.0.16}% 
\contentsline {subsection}{\numberline {\leavevmode {\color {blue}16.1}}Introduction}{181}{subsection.0.16.1}% 
\contentsline {paragraph}{Double Spoke cavities in the ESS SC Linac.}{182}{section*.304}% 
\contentsline {subsection}{\numberline {\leavevmode {\color {blue}16.2}}Electromagnetic design}{182}{subsection.0.16.2}% 
\contentsline {subsubsection}{\numberline {16.2.1}Feedback from former spoke cavity fabrication at IPNO}{182}{subsubsection.0.16.2.1}% 
\contentsline {subsubsection}{\numberline {16.2.2}CST MicroWave Studio benchmark}{184}{subsubsection.0.16.2.2}% 
\contentsline {subsubsection}{\numberline {16.2.3}Pasteurisation of the model}{185}{subsubsection.0.16.2.3}% 
\contentsline {paragraph}{Main results:}{185}{section*.311}% 
\contentsline {subsubsection}{\numberline {16.2.4}Coupler antenna sizing}{187}{subsubsection.0.16.2.4}% 
\contentsline {paragraph}{Main results:}{187}{section*.316}% 
\contentsline {subsection}{\numberline {\leavevmode {\color {blue}16.3}}Mechanical design}{189}{subsection.0.16.3}% 
\contentsline {subsubsection}{\numberline {16.3.1}General description of the spoke resonator}{189}{subsubsection.0.16.3.1}% 
\contentsline {subsubsection}{\numberline {16.3.2}Helium vessel}{189}{subsubsection.0.16.3.2}% 
\contentsline {subsection}{\numberline {\leavevmode {\color {blue}16.4}}Mechanical simulations}{191}{subsection.0.16.4}% 
\contentsline {subsubsection}{\numberline {16.4.1}Pressure loads}{191}{subsubsection.0.16.4.1}% 
\contentsline {subsubsection}{\numberline {16.4.2}Modal analysis}{191}{subsubsection.0.16.4.2}% 
\contentsline {subsubsection}{\numberline {16.4.3}Frequency sensitivity}{191}{subsubsection.0.16.4.3}% 
\contentsline {paragraph}{Sensitivity to tuning and helium pressure fluctuation.}{191}{section*.327}% 
\contentsline {paragraph}{Sensitivity to Lorentz Forces.}{191}{section*.330}% 
\contentsline {subsection}{\numberline {\leavevmode {\color {blue}16.5}}Power coupler}{194}{subsection.0.16.5}% 
\contentsline {subsubsection}{\numberline {16.5.1}Multipactor}{195}{subsubsection.0.16.5.1}% 
\contentsline {subsubsection}{\numberline {16.5.2}RF window diameter}{195}{subsubsection.0.16.5.2}% 
\contentsline {subsection}{\numberline {\leavevmode {\color {blue}16.6}}Prototype test results}{199}{subsection.0.16.6}% 
\contentsline {subsubsection}{\numberline {16.6.1}RF results}{199}{subsubsection.0.16.6.1}% 
\contentsline {subsubsection}{\numberline {16.6.2}Mechanical results}{199}{subsubsection.0.16.6.2}% 
\contentsline {subsubsection}{\numberline {16.6.3}Conclusions}{199}{subsubsection.0.16.6.3}% 
\contentsline {subsection}{\numberline {\leavevmode {\color {blue}16.7}}Cryomodules}{201}{subsection.0.16.7}% 
\contentsline {subsubsection}{\numberline {16.7.1}Introduction}{201}{subsubsection.0.16.7.1}% 
\contentsline {subsubsection}{\numberline {16.7.2}Cryomodule Design}{201}{subsubsection.0.16.7.2}% 
\contentsline {subsubsection}{\numberline {16.7.3}Cryomodule assembly}{203}{subsubsection.0.16.7.3}% 
\contentsline {subsubsection}{\numberline {16.7.4}Cryogenics}{204}{subsubsection.0.16.7.4}% 
\contentsline {paragraph}{Heat loads.}{204}{section*.349}% 
\contentsline {subsubsection}{\numberline {16.7.5}Cold Tuning System}{206}{subsubsection.0.16.7.5}% 
\contentsline {paragraph}{Conceptual design.}{206}{section*.354}% 
\contentsline {paragraph}{Stiffness and compliance.}{207}{section*.358}% 
\contentsline {section}{\numberline {\leavevmode {\color {blue}17}}Elliptical Cavities}{208}{section.0.17}% 
\contentsline {subsection}{\numberline {\leavevmode {\color {blue}17.1}}Introduction}{208}{subsection.0.17.1}% 
\contentsline {subsection}{\numberline {\leavevmode {\color {blue}17.2}}Elliptical Cavities}{209}{subsection.0.17.2}% 
\contentsline {subsection}{\numberline {\leavevmode {\color {blue}17.3}}Cryomodules}{210}{subsection.0.17.3}% 
\contentsline {section}{\numberline {\leavevmode {\color {blue}18}}Radio-Frequency System}{210}{section.0.18}% 
\contentsline {subsection}{\numberline {\leavevmode {\color {blue}18.1}}Introduction}{210}{subsection.0.18.1}% 
\contentsline {subsubsection}{\numberline {18.1.1}Low-level RF system}{210}{subsubsection.0.18.1.1}% 
\contentsline {subsubsection}{\numberline {18.1.2}Power amplifiers}{211}{subsubsection.0.18.1.2}% 
\contentsline {subsection}{\numberline {\leavevmode {\color {blue}18.2}}LLRF (RT \& SC)}{214}{subsection.0.18.2}% 
\contentsline {subsection}{\numberline {\leavevmode {\color {blue}18.3}}Accelerator References}{218}{subsection.0.18.3}% 
\contentsline {subsection}{\numberline {\leavevmode {\color {blue}18.4}}RF Power Amplifiers}{220}{subsection.0.18.4}% 
\contentsline {subsubsection}{\numberline {18.4.1}Injector}{220}{subsubsection.0.18.4.1}% 
\contentsline {subsubsection}{\numberline {18.4.2}SS amplifier design}{220}{subsubsection.0.18.4.2}% 
\contentsline {subsubsection}{\numberline {18.4.3}Rebuncher \& CH cavities}{221}{subsubsection.0.18.4.3}% 
\contentsline {subsubsection}{\numberline {18.4.4}SC Linac}{221}{subsubsection.0.18.4.4}% 
\contentsline {subsection}{\numberline {\leavevmode {\color {blue}18.5}}High-Voltage RF Distribution System}{227}{subsection.0.18.5}% 
\contentsline {section}{\numberline {\leavevmode {\color {blue}19}}Cryogenic System}{229}{section.0.19}% 
\contentsline {subsection}{\numberline {\leavevmode {\color {blue}19.1}}Introduction}{229}{subsection.0.19.1}% 
\contentsline {subsection}{\numberline {\leavevmode {\color {blue}19.2}}MYRRHA SC Linac and Heat Loads requirements for the Cryogenic System}{229}{subsection.0.19.2}% 
\contentsline {subsection}{\numberline {\leavevmode {\color {blue}19.3}}Spoke Cavities}{232}{subsection.0.19.3}% 
\contentsline {subsection}{\numberline {\leavevmode {\color {blue}19.4}}Elliptical Cavities}{233}{subsection.0.19.4}% 
\contentsline {subsection}{\numberline {\leavevmode {\color {blue}19.5}}Heat Loads of the MYRRHA Superconducting Cryomodules}{234}{subsection.0.19.5}% 
\contentsline {subsection}{\numberline {\leavevmode {\color {blue}19.6}}Cryoplant capacity}{235}{subsection.0.19.6}% 
\contentsline {subsection}{\numberline {\leavevmode {\color {blue}19.7}}Cryogenic Systems of Similar Capacity}{236}{subsection.0.19.7}% 
\contentsline {subsection}{\numberline {\leavevmode {\color {blue}19.8}}MYRRHA Cryogenic System}{237}{subsection.0.19.8}% 
\contentsline {subsection}{\numberline {\leavevmode {\color {blue}19.9}}MYRRHA Cryogenic System implementation}{240}{subsection.0.19.9}% 
\contentsline {subsection}{\numberline {\leavevmode {\color {blue}19.10}}Reliability aspects}{242}{subsection.0.19.10}% 
\contentsline {subsubsection}{\numberline {19.10.1}Reliability of big cryogenic refrigerators used for SC accelerators}{243}{subsubsection.0.19.10.1}% 
\contentsline {paragraph}{HERA (1992--2007).}{243}{section*.409}% 
\contentsline {paragraph}{SNS (in operation from 2007).}{244}{section*.411}% 
\contentsline {paragraph}{LHC operation.}{245}{section*.416}% 
\contentsline {subsection}{\numberline {\leavevmode {\color {blue}19.11}}MYRRHA Accelerator Review (2012): comments on the Cryogenic System}{247}{subsection.0.19.11}% 
\contentsline {paragraph}{MYRRHA proposal:}{247}{section*.418}% 
\contentsline {section}{\numberline {\leavevmode {\color {blue}20}}Beam Instrumentation}{247}{section.0.20}% 
\contentsline {subsection}{\numberline {\leavevmode {\color {blue}20.1}}Introduction}{247}{subsection.0.20.1}% 
\contentsline {subsection}{\numberline {\leavevmode {\color {blue}20.2}}Allison Scanners}{247}{subsection.0.20.2}% 
\contentsline {subsection}{\numberline {\leavevmode {\color {blue}20.3}}AC Current Transformers}{248}{subsection.0.20.3}% 
\contentsline {subsection}{\numberline {\leavevmode {\color {blue}20.4}}Beam Position Monitors}{248}{subsection.0.20.4}% 
\contentsline {subsubsection}{\numberline {20.4.1}BPM specifications}{248}{subsubsection.0.20.4.1}% 
\contentsline {subsubsection}{\numberline {20.4.2}BPM electronics}{249}{subsubsection.0.20.4.2}% 
\contentsline {subsubsection}{\numberline {20.4.3}SPIRAL2 BPM}{250}{subsubsection.0.20.4.3}% 
\contentsline {subsubsection}{\numberline {20.4.4}Energy Measurement}{250}{subsubsection.0.20.4.4}% 
\contentsline {subsection}{\numberline {\leavevmode {\color {blue}20.5}}Phase Probes}{251}{subsection.0.20.5}% 
\contentsline {subsection}{\numberline {\leavevmode {\color {blue}20.6}}Bunch Shape Monitors}{251}{subsection.0.20.6}% 
\contentsline {subsection}{\numberline {\leavevmode {\color {blue}20.7}}Collimators}{251}{subsection.0.20.7}% 
\contentsline {subsection}{\numberline {\leavevmode {\color {blue}20.8}}Slits}{251}{subsection.0.20.8}% 
\contentsline {subsection}{\numberline {\leavevmode {\color {blue}20.9}}Beam Loss Monitors}{251}{subsection.0.20.9}% 
\contentsline {subsubsection}{\numberline {20.9.1}Study objectives and work phases}{252}{subsubsection.0.20.9.1}% 
\contentsline {paragraph}{MYRRHA linac requirements.}{252}{section*.422}% 
\contentsline {paragraph}{Beam loss classes and operating methodology.}{253}{section*.424}% 
\contentsline {subsubsection}{\numberline {20.9.2}Beam Loss Monitor features}{254}{subsubsection.0.20.9.2}% 
\contentsline {subsubsection}{\numberline {20.9.3}Detection mechanisms within BLM systems.}{254}{subsubsection.0.20.9.3}% 
\contentsline {paragraph}{Generalities.}{254}{section*.425}% 
\contentsline {section}{\numberline {\leavevmode {\color {blue}21}}Focusing Magnets and Steerers}{257}{section.0.21}% 
\contentsline {subsection}{\numberline {\leavevmode {\color {blue}21.1}}Solenoid Magnets}{257}{subsection.0.21.1}% 
\contentsline {subsection}{\numberline {\leavevmode {\color {blue}21.2}}Dipole Magnets}{257}{subsection.0.21.2}% 
\contentsline {subsubsection}{\numberline {21.2.1}Steerers}{257}{subsubsection.0.21.2.1}% 
\contentsline {subsection}{\numberline {\leavevmode {\color {blue}21.3}}Quadrupole Magnets}{257}{subsection.0.21.3}% 
\contentsline {subsection}{\numberline {\leavevmode {\color {blue}21.4}}AC Magnets}{257}{subsection.0.21.4}% 
\contentsline {section}{\numberline {\leavevmode {\color {blue}22}}Vacuum System}{258}{section.0.22}% 
\contentsline {subsection}{\numberline {\leavevmode {\color {blue}22.1}}Introduction}{258}{subsection.0.22.1}% 
\contentsline {subsection}{\numberline {\leavevmode {\color {blue}22.2}}Low energy beam transport (LEBT)}{258}{subsection.0.22.2}% 
\contentsline {paragraph}{The first method,}{258}{section*.429}% 
\contentsline {paragraph}{The second method,}{258}{section*.432}% 
\contentsline {subsection}{\numberline {\leavevmode {\color {blue}22.3}}RFQ and CH-Booster Section}{261}{subsection.0.22.3}% 
\contentsline {subsubsection}{\numberline {22.3.1}Vacuum protection along the beam-line}{261}{subsubsection.0.22.3.1}% 
\contentsline {subsubsection}{\numberline {22.3.2}Operating pressure, base pressure and leak rate}{261}{subsubsection.0.22.3.2}% 
\contentsline {subsubsection}{\numberline {22.3.3}Pumping requirements and gas flow}{262}{subsubsection.0.22.3.3}% 
\contentsline {subsubsection}{\numberline {22.3.4}Fore-vacuum and UHV pumps}{262}{subsubsection.0.22.3.4}% 
\contentsline {subsubsection}{\numberline {22.3.5}Flanges, seals and connectors to be used in the beam-line}{262}{subsubsection.0.22.3.5}% 
\contentsline {subsubsection}{\numberline {22.3.6}Vacuum measurement and instrumentation}{263}{subsubsection.0.22.3.6}% 
\contentsline {subsubsection}{\numberline {22.3.7}Evacuation times and procedure for commissioning}{263}{subsubsection.0.22.3.7}% 
\contentsline {subsubsection}{\numberline {22.3.8}Evacuation times and procedure for maintenance}{264}{subsubsection.0.22.3.8}% 
\contentsline {subsubsection}{\numberline {22.3.9}Evacuation procedure for maintenance process}{264}{subsubsection.0.22.3.9}% 
\contentsline {subsubsection}{\numberline {22.3.10}Materials to be used within the vacuum environment}{264}{subsubsection.0.22.3.10}% 
\contentsline {subsubsection}{\numberline {22.3.11}Pumping performance}{264}{subsubsection.0.22.3.11}% 
\contentsline {subsubsection}{\numberline {22.3.12}Vacuum distribution manifolds, seals and valves}{265}{subsubsection.0.22.3.12}% 
\contentsline {subsection}{\numberline {\leavevmode {\color {blue}22.4}}The Medium Energy Beam Transport (MEBT3)}{266}{subsection.0.22.4}% 
\contentsline {subsection}{\numberline {\leavevmode {\color {blue}22.5}}Main Superconducting Linac}{267}{subsection.0.22.5}% 
\contentsline {subsection}{\numberline {\leavevmode {\color {blue}22.6}}High Energy Beam Transport (HEBT)}{268}{subsection.0.22.6}% 
\contentsline {section}{\numberline {\leavevmode {\color {blue}23}}Water Cooling}{270}{section.0.23}% 
\contentsline {subsection}{\numberline {\leavevmode {\color {blue}23.1}}Introduction}{270}{subsection.0.23.1}% 
\contentsline {subsection}{\numberline {\leavevmode {\color {blue}23.2}}Design \& Layout}{270}{subsection.0.23.2}% 
\contentsline {section}{\numberline {\leavevmode {\color {blue}24}}Reactor Reactivity Monitoring}{272}{section.0.24}% 
\contentsline {subsection}{\numberline {\leavevmode {\color {blue}24.1}}Introduction}{272}{subsection.0.24.1}% 
\contentsline {subsection}{\numberline {\leavevmode {\color {blue}24.2}}MYRRHA Sub-critical Core}{272}{subsection.0.24.2}% 
\contentsline {subsection}{\numberline {\leavevmode {\color {blue}24.3}}Accelerator mode operation}{275}{subsection.0.24.3}% 
\contentsline {subsection}{\numberline {\leavevmode {\color {blue}24.4}}Start-up (sub-critical approach)}{277}{subsection.0.24.4}% 
\contentsline {subsubsection}{\numberline {24.4.1}First phase of sub-critical approach}{277}{subsubsection.0.24.4.1}% 
\contentsline {subsubsection}{\numberline {24.4.2}Second phase of sub-critical approach}{277}{subsubsection.0.24.4.2}% 
\contentsline {subsection}{\numberline {\leavevmode {\color {blue}24.5}}Nominal operation (HFP)}{277}{subsection.0.24.5}% 
\contentsline {subsection}{\numberline {\leavevmode {\color {blue}24.6}}Instrumentation}{278}{subsection.0.24.6}% 
\contentsline {subsection}{\numberline {\leavevmode {\color {blue}24.7}}Conclusions}{278}{subsection.0.24.7}% 
\contentsline {section}{\numberline {\leavevmode {\color {blue}25}}Control System}{278}{section.0.25}% 
\contentsline {subsection}{\numberline {\leavevmode {\color {blue}25.1}}Executive Overview}{278}{subsection.0.25.1}% 
\contentsline {subsection}{\numberline {\leavevmode {\color {blue}25.2}}Control System Architecture}{279}{subsection.0.25.2}% 
\contentsline {subsubsection}{\numberline {25.2.1}Key requirements and use cases}{279}{subsubsection.0.25.2.1}% 
\contentsline {subsubsection}{\numberline {25.2.2}Main subsystems}{280}{subsubsection.0.25.2.2}% 
\contentsline {subsubsection}{\numberline {25.2.3}Three tier representation}{281}{subsubsection.0.25.2.3}% 
\contentsline {subsubsection}{\numberline {25.2.4}Functions of the tiers }{282}{subsubsection.0.25.2.4}% 
\contentsline {subsubsection}{\numberline {25.2.5}Infrastructure}{283}{subsubsection.0.25.2.5}% 
\contentsline {paragraph}{The control room.}{283}{section*.455}% 
\contentsline {paragraph}{Control system data centre.}{283}{section*.456}% 
\contentsline {paragraph}{Networks.}{283}{section*.457}% 
\contentsline {paragraph}{Hardware framework.}{284}{section*.459}% 
\contentsline {paragraph}{Software framework.}{286}{section*.461}% 
\contentsline {paragraph}{Process Variables}{287}{section*.462}% 
\contentsline {paragraph}{Device Integration}{288}{section*.463}% 
\contentsline {paragraph}{Naming Convention.}{289}{section*.465}% 
\contentsline {paragraph}{Motivation.}{289}{section*.466}% 
\contentsline {paragraph}{Naming Format Definition.}{290}{section*.467}% 
\contentsline {paragraph}{Naming Syntax Rules.}{290}{section*.469}% 
\contentsline {paragraph}{Device part and Signal part.}{291}{section*.470}% 
\contentsline {paragraph}{System segment.}{291}{section*.471}% 
\contentsline {paragraph}{Subsystem segment.}{291}{section*.473}% 
\contentsline {paragraph}{Device type and device instance segments.}{291}{section*.475}% 
\contentsline {paragraph}{Examples.}{291}{section*.477}% 
\contentsline {subsubsection}{\numberline {25.2.6}Control system life-cycle}{292}{subsubsection.0.25.2.6}% 
\contentsline {subsection}{\numberline {\leavevmode {\color {blue}25.3}}Additional information on the control system.}{294}{subsection.0.25.3}% 
\contentsline {subsubsection}{\numberline {25.3.1}Control System Core}{294}{subsubsection.0.25.3.1}% 
\contentsline {paragraph}{Machine Protection System.}{294}{section*.479}% 
\contentsline {paragraph}{Personnel Protection System.}{299}{section*.482}% 
\contentsline {paragraph}{Timing System.}{301}{section*.483}% 
\contentsline {paragraph}{Services.}{303}{section*.485}% 
\contentsline {subsubsection}{\numberline {25.3.2}Control Box}{307}{subsubsection.0.25.3.2}% 
\contentsline {paragraph}{Distribution and design.}{307}{section*.486}% 
\contentsline {paragraph}{Control box architecture.}{307}{figure.caption.488}% 
\contentsline {paragraph}{PLC Framework.}{309}{section*.490}% 
\contentsline {subsubsection}{\numberline {25.3.3}Configuration and Conventions}{312}{subsubsection.0.25.3.3}% 
\contentsline {paragraph}{Stakeholders.}{313}{section*.495}% 
\contentsline {paragraph}{Configuration management.}{314}{section*.497}% 
\contentsline {paragraph}{General architecture.}{314}{section*.499}% 
\contentsline {paragraph}{Configuration Components}{314}{section*.501}% 
\contentsline {paragraph}{Workflows.}{318}{section*.503}% 
\contentsline {paragraph}{Accelerator modelling.}{318}{section*.504}% 
\contentsline {paragraph}{Accelerator diagnostics and predictive maintenance.}{321}{section*.506}% 
\contentsline {subsubsection}{\numberline {25.3.4}Development and deployment environment}{321}{subsubsection.0.25.3.4}% 
\contentsline {subsubsection}{\numberline {25.3.5}Services}{322}{subsubsection.0.25.3.5}% 
\contentsline {paragraph}{Software development cycle.}{323}{section*.509}% 
\contentsline {subsubsection}{\numberline {25.3.6}User interface (HMI)}{323}{subsubsection.0.25.3.6}% 
\contentsline {paragraph}{User roles and profiles.}{323}{section*.511}% 
\contentsline {paragraph}{High Level Application interfaces and standards.}{324}{section*.512}% 
\contentsline {subsubsection}{\numberline {25.3.7}Fault Recovery Procedure}{325}{subsubsection.0.25.3.7}% 
\contentsline {paragraph}{Serial redundancy Linac}{325}{section*.513}% 
\contentsline {paragraph}{Parallel redundancy Linac.}{327}{section*.514}% 
\contentsline {section}{\numberline {\leavevmode {\color {blue}26}}Safety and Reliability}{327}{section.0.26}% 
\contentsline {subsection}{\numberline {\leavevmode {\color {blue}26.1}}Introduction}{327}{subsection.0.26.1}% 
\contentsline {subsection}{\numberline {\leavevmode {\color {blue}26.2}}Reliability Studies}{327}{subsection.0.26.2}% 
\contentsline {section}{\numberline {\leavevmode {\color {blue}27}}Building}{328}{section.0.27}% 
\contentsline {subsection}{\numberline {\leavevmode {\color {blue}27.1}}Balance-of-Plant Facilities}{328}{subsection.0.27.1}% 
\contentsline {subsection}{\numberline {\leavevmode {\color {blue}27.2}}Overview}{329}{subsection.0.27.2}% 
\contentsline {subsubsection}{\numberline {27.2.1}Main parts of the installation}{329}{subsubsection.0.27.2.1}% 
\contentsline {subsubsection}{\numberline {27.2.2}Balance-of-Plant}{329}{subsubsection.0.27.2.2}% 
\contentsline {subsubsection}{\numberline {27.2.3}Implementation approach}{330}{subsubsection.0.27.2.3}% 
\contentsline {subsection}{\numberline {\leavevmode {\color {blue}27.3}}Conceptual design}{330}{subsection.0.27.3}% 
\contentsline {subsubsection}{\numberline {27.3.1}Master plan}{330}{subsubsection.0.27.3.1}% 
\contentsline {subsubsection}{\numberline {27.3.2}Projected MYRRHA master plan}{330}{subsubsection.0.27.3.2}% 
\contentsline {subsubsection}{\numberline {27.3.3}Building design}{330}{subsubsection.0.27.3.3}% 
\contentsline {subsubsection}{\numberline {27.3.4}Main systems design}{330}{subsubsection.0.27.3.4}% 
\contentsline {subsubsection}{\numberline {27.3.5}Integration and coordination}{333}{subsubsection.0.27.3.5}% 
\contentsline {subsection}{\numberline {\leavevmode {\color {blue}27.4}}Safety and security.}{333}{subsection.0.27.4}% 
\contentsline {subsection}{\numberline {\leavevmode {\color {blue}27.5}}Upgrade to 600~MeV and MYRRHA ADS}{333}{subsection.0.27.5}% 
\contentsline {subsubsection}{\numberline {27.5.1}Potential impact on safety}{333}{subsubsection.0.27.5.1}% 
\contentsline {subsubsection}{\numberline {27.5.2}Technical consequences}{333}{subsubsection.0.27.5.2}% 
\contentsline {section}{\numberline {\leavevmode {\color {blue}28}}Commissioning and Decommissioning}{334}{section.0.28}% 
\contentsline {subsection}{\numberline {\leavevmode {\color {blue}28.1}}Commissioning}{334}{subsection.0.28.1}% 
\contentsline {subsubsection}{\numberline {28.1.1}Beam power ramping up}{334}{subsubsection.0.28.1.1}% 
\contentsline {subsubsection}{\numberline {28.1.2}Injector beam reconfiguration in fault cases}{335}{subsubsection.0.28.1.2}% 
\contentsline {subsubsection}{\numberline {28.1.3}Main Linac beam reconfiguration in case of faults}{336}{subsubsection.0.28.1.3}% 
\contentsline {subsubsection}{\numberline {28.1.4}Beam monitoring \& protection systems}{337}{subsubsection.0.28.1.4}% 
\contentsline {subsection}{\numberline {\leavevmode {\color {blue}28.2}}Decommissioning}{338}{subsection.0.28.2}% 
\contentsline {part}{III\hspace {1em}Additional Information}{339}{part.3}% 
\contentsline {section}{\numberline {\leavevmode {\color {blue}29}}Reliability}{341}{section.0.29}% 
\contentsline {subsection}{\numberline {\leavevmode {\color {blue}29.1}}Injector Duplication}{341}{subsection.0.29.1}% 
\contentsline {subsection}{\numberline {\leavevmode {\color {blue}29.2}}Tolerance to RF faults in the Linac}{341}{subsection.0.29.2}% 
\contentsline {subsection}{\numberline {\leavevmode {\color {blue}29.3}}Reliability Analysis}{342}{subsection.0.29.3}% 
\contentsline {subsection}{\numberline {\leavevmode {\color {blue}29.4}}Reliability Model}{343}{subsection.0.29.4}% 
\contentsline {subsubsection}{\numberline {29.4.1}Availability/reliability goals for MYRRHA linac}{343}{subsubsection.0.29.4.1}% 
\contentsline {paragraph}{General considerations.}{343}{section*.520}% 
\contentsline {paragraph}{Reliability oriented conceptual design.}{343}{section*.522}% 
\contentsline {subsubsection}{\numberline {29.4.2}Methodological approach}{345}{subsubsection.0.29.4.2}% 
\contentsline {subsubsection}{\numberline {29.4.3}Input and data for modelling and reliability analysis}{345}{subsubsection.0.29.4.3}% 
\contentsline {paragraph}{Input documents.}{345}{section*.525}% 
\contentsline {paragraph}{Input data (reliability data).}{345}{section*.527}% 
\contentsline {subsubsection}{\numberline {29.4.4}Basic Modelling assumptions}{346}{subsubsection.0.29.4.4}% 
\contentsline {paragraph}{Risk Spectrum modelling.}{346}{section*.528}% 
\contentsline {paragraph}{General hypotheses \& assumptions (linac design).}{346}{section*.529}% 
\contentsline {subsubsection}{\numberline {29.4.5}Reliability modelling results.}{347}{subsubsection.0.29.4.5}% 
\contentsline {paragraph}{Results from sensitivity analysis: availability model.}{347}{section*.530}% 
\contentsline {paragraph}{Results from sensitivity analysis: frequency model}{348}{section*.532}% 
\contentsline {paragraph}{Design optimisation: availability model.}{348}{section*.534}% 
\contentsline {paragraph}{Design optimisation: frequency model.}{350}{section*.536}% 
\contentsline {subsubsection}{\numberline {29.4.6}Main Conclusions}{350}{subsubsection.0.29.4.6}% 
\contentsline {section}{\numberline {\leavevmode {\color {blue}30}}Index}{354}{section.0.30}% 
\contentsline {section}{\numberline {\leavevmode {\color {blue}31}}Acronyms \& Abbreviations}{357}{section.0.31}% 
