\relax 
\providecommand\hyper@newdestlabel[2]{}
\catcode `:\active 
\catcode `;\active 
\catcode `!\active 
\catcode `?\active 
\catcode `"\active 
\providecommand\HyperFirstAtBeginDocument{\AtBeginDocument}
\HyperFirstAtBeginDocument{\ifx\hyper@anchor\@undefined
\global\let\oldcontentsline\contentsline
\gdef\contentsline#1#2#3#4{\oldcontentsline{#1}{#2}{#3}}
\global\let\oldnewlabel\newlabel
\gdef\newlabel#1#2{\newlabelxx{#1}#2}
\gdef\newlabelxx#1#2#3#4#5#6{\oldnewlabel{#1}{{#2}{#3}}}
\AtEndDocument{\ifx\hyper@anchor\@undefined
\let\contentsline\oldcontentsline
\let\newlabel\oldnewlabel
\fi}
\fi}
\global\let\hyper@last\relax 
\gdef\HyperFirstAtBeginDocument#1{#1}
\providecommand\HyField@AuxAddToFields[1]{}
\providecommand\HyField@AuxAddToCoFields[2]{}
\babel@aux{english}{}
\citation{AbsMARISA}
\@writefile{toc}{\contentsline {chapter}{\numberline {1}Introduction}{7}{chapter.1}\protected@file@percent }
\@writefile{lof}{\addvspace {10\p@ }}
\@writefile{lot}{\addvspace {10\p@ }}
\@writefile{toc}{\contentsline {section}{\numberline {1.1}Goal of the MYRTE task 2.2}{7}{section.1.1}\protected@file@percent }
\@writefile{lot}{\contentsline {table}{\numberline {1.1}{\ignorespaces Original specification of the RFQ SSA.}}{7}{table.1.1}\protected@file@percent }
\newlabel{tab:ctrlsys:specs}{{1.1}{7}{Original specification of the RFQ SSA}{table.1.1}{}}
\@writefile{lof}{\contentsline {figure}{\numberline {1.1}{\ignorespaces Overview of MARISA outcome (left: 24 kW Gysel combiner, middle: commercial Power Supply Unit brochure, right: complete amplifier view).}}{8}{figure.1.1}\protected@file@percent }
\newlabel{fig:ctrlsys:overview}{{1.1}{8}{Overview of MARISA outcome (left: 24 kW Gysel combiner, middle: commercial Power Supply Unit brochure, right: complete amplifier view)}{figure.1.1}{}}
\@writefile{toc}{\contentsline {section}{\numberline {1.2}Advantages of SSA compared to vacuum tubes}{8}{section.1.2}\protected@file@percent }
\@writefile{toc}{\contentsline {section}{\numberline {1.3}Achievements on the task 2.2}{8}{section.1.3}\protected@file@percent }
\@writefile{toc}{\contentsline {chapter}{\numberline {2}Design and Manufacturing}{10}{chapter.2}\protected@file@percent }
\@writefile{lof}{\addvspace {10\p@ }}
\@writefile{lot}{\addvspace {10\p@ }}
\@writefile{toc}{\contentsline {section}{\numberline {2.1}Summary of the program development}{10}{section.2.1}\protected@file@percent }
\@writefile{toc}{\contentsline {subsection}{\numberline {2.1.1}Technical choices made for a dependable amplifier}{10}{subsection.2.1.1}\protected@file@percent }
\@writefile{toc}{\contentsline {subsection}{\numberline {2.1.2}MYRTE SSA cabinet design in a nutshell}{10}{subsection.2.1.2}\protected@file@percent }
\@writefile{lof}{\contentsline {figure}{\numberline {2.1}{\ignorespaces CAD view of the SSA cabinet.}}{11}{figure.2.1}\protected@file@percent }
\newlabel{fig:ctrlsys:cadview}{{2.1}{11}{CAD view of the SSA cabinet}{figure.2.1}{}}
\@writefile{toc}{\contentsline {subsection}{\numberline {2.1.3}The 6kW module}{11}{subsection.2.1.3}\protected@file@percent }
\@writefile{lof}{\contentsline {figure}{\numberline {2.2}{\ignorespaces Top side (left) and bottom side (right) of a RF module.}}{12}{figure.2.2}\protected@file@percent }
\newlabel{fig:ctrlsys:RFmodule}{{2.2}{12}{Top side (left) and bottom side (right) of a RF module}{figure.2.2}{}}
\@writefile{toc}{\contentsline {subsection}{\numberline {2.1.4}Pallet amplifier development}{12}{subsection.2.1.4}\protected@file@percent }
\@writefile{lof}{\contentsline {figure}{\numberline {2.3}{\ignorespaces R\&D activity on the pallet design (left: heat transfer simulation, right: temperature measurement on real pallet.}}{12}{figure.2.3}\protected@file@percent }
\newlabel{fig:ctrlsys:effort}{{2.3}{12}{R\&D activity on the pallet design (left: heat transfer simulation, right: temperature measurement on real pallet}{figure.2.3}{}}
\@writefile{toc}{\contentsline {subsection}{\numberline {2.1.5}Power combining technique}{12}{subsection.2.1.5}\protected@file@percent }
\@writefile{lof}{\contentsline {figure}{\numberline {2.4}{\ignorespaces View of a 3D EM simulation that shows the good isolation properties of the combiner.}}{13}{figure.2.4}\protected@file@percent }
\newlabel{fig:ctrlsys:simu}{{2.4}{13}{View of a 3D EM simulation that shows the good isolation properties of the combiner}{figure.2.4}{}}
\@writefile{lof}{\contentsline {figure}{\numberline {2.5}{\ignorespaces MYRTE combiners (copper parts only) that have been used for EM simulations.}}{13}{figure.2.5}\protected@file@percent }
\newlabel{fig:ctrlsys:combiners}{{2.5}{13}{MYRTE combiners (copper parts only) that have been used for EM simulations}{figure.2.5}{}}
\@writefile{toc}{\contentsline {subsection}{\numberline {2.1.6}Control system}{13}{subsection.2.1.6}\protected@file@percent }
\@writefile{lof}{\contentsline {figure}{\numberline {2.6}{\ignorespaces Overview of the global control system.}}{14}{figure.2.6}\protected@file@percent }
\newlabel{fig:ctrlsys:ovv}{{2.6}{14}{Overview of the global control system}{figure.2.6}{}}
\@writefile{lof}{\contentsline {figure}{\numberline {2.7}{\ignorespaces 6kW rack control architecture.}}{14}{figure.2.7}\protected@file@percent }
\newlabel{fig:ctrlsys:ctrlarch}{{2.7}{14}{6kW rack control architecture}{figure.2.7}{}}
\@writefile{lof}{\contentsline {figure}{\numberline {2.8}{\ignorespaces Examples of control windows on the local screen.}}{15}{figure.2.8}\protected@file@percent }
\newlabel{fig:ctrlsys:wins}{{2.8}{15}{Examples of control windows on the local screen}{figure.2.8}{}}
\@writefile{toc}{\contentsline {section}{\numberline {2.2}Production and testing of the amplifiers}{15}{section.2.2}\protected@file@percent }
\@writefile{lof}{\contentsline {figure}{\numberline {2.9}{\ignorespaces Batch production of PCB's.}}{15}{figure.2.9}\protected@file@percent }
\newlabel{fig:ctrlsys:prod-a}{{2.9}{15}{Batch production of PCB's}{figure.2.9}{}}
\@writefile{lof}{\contentsline {figure}{\numberline {2.10}{\ignorespaces Machining of aluminum frame.}}{15}{figure.2.10}\protected@file@percent }
\newlabel{fig:ctrlsys:prod-b}{{2.10}{15}{Machining of aluminum frame}{figure.2.10}{}}
\@writefile{lof}{\contentsline {figure}{\numberline {2.11}{\ignorespaces Assembly of RF modules.}}{16}{figure.2.11}\protected@file@percent }
\newlabel{fig:ctrlsys:prod-c}{{2.11}{16}{Assembly of RF modules}{figure.2.11}{}}
\@writefile{lof}{\contentsline {figure}{\numberline {2.12}{\ignorespaces Machining of copper cooling parts.}}{16}{figure.2.12}\protected@file@percent }
\newlabel{fig:ctrlsys:prod-d}{{2.12}{16}{Machining of copper cooling parts}{figure.2.12}{}}
\@writefile{toc}{\contentsline {chapter}{\numberline {3}Calibration and Testing}{17}{chapter.3}\protected@file@percent }
\@writefile{lof}{\addvspace {10\p@ }}
\@writefile{lot}{\addvspace {10\p@ }}
\@writefile{lof}{\contentsline {figure}{\numberline {3.1}{\ignorespaces Example of amplifier gain distribution spread in a production batch of 50 pallets.}}{17}{figure.3.1}\protected@file@percent }
\newlabel{fig:ctrlsys:gain-distr}{{3.1}{17}{Example of amplifier gain distribution spread in a production batch of 50 pallets}{figure.3.1}{}}
\@writefile{lof}{\contentsline {figure}{\numberline {3.2}{\ignorespaces Examples of testing reports.}}{18}{figure.3.2}\protected@file@percent }
\newlabel{fig:ctrlsys:test-reports}{{3.2}{18}{Examples of testing reports}{figure.3.2}{}}
\@writefile{lof}{\contentsline {figure}{\numberline {3.3}{\ignorespaces Tests of the complete amplifier on the final site.}}{18}{figure.3.3}\protected@file@percent }
\newlabel{fig:ctrlsys:final-tests}{{3.3}{18}{Tests of the complete amplifier on the final site}{figure.3.3}{}}
\@writefile{toc}{\contentsline {chapter}{\numberline {4}Integration in the CRC Vault}{19}{chapter.4}\protected@file@percent }
\@writefile{lof}{\addvspace {10\p@ }}
\@writefile{lot}{\addvspace {10\p@ }}
\@writefile{toc}{\contentsline {section}{\numberline {4.1}Mechanical integration}{19}{section.4.1}\protected@file@percent }
\@writefile{lof}{\contentsline {figure}{\numberline {4.1}{\ignorespaces Final Installation.}}{20}{figure.4.1}\protected@file@percent }
\newlabel{fig:ctrlsys:installation}{{4.1}{20}{Final Installation}{figure.4.1}{}}
\@writefile{toc}{\contentsline {section}{\numberline {4.2}Water cooling integration}{20}{section.4.2}\protected@file@percent }
\@writefile{lot}{\contentsline {table}{\numberline {4.1}{\ignorespaces Cooling lines minimal requirements.}}{20}{table.4.1}\protected@file@percent }
\newlabel{tab:ctrlsys:synoptic}{{4.1}{20}{Cooling lines minimal requirements}{table.4.1}{}}
\@writefile{lof}{\contentsline {figure}{\numberline {4.2}{\ignorespaces Water manifold content.}}{21}{figure.4.2}\protected@file@percent }
\newlabel{fig:ctrlsys:water-mc}{{4.2}{21}{Water manifold content}{figure.4.2}{}}
\@writefile{lof}{\contentsline {figure}{\numberline {4.3}{\ignorespaces Water manifold integration.}}{21}{figure.4.3}\protected@file@percent }
\newlabel{fig:ctrlsys:integr}{{4.3}{21}{Water manifold integration}{figure.4.3}{}}
\@writefile{toc}{\contentsline {section}{\numberline {4.3}Electrical integration}{21}{section.4.3}\protected@file@percent }
\@writefile{lot}{\contentsline {table}{\numberline {4.2}{\ignorespaces General electrical requirements.}}{22}{table.4.2}\protected@file@percent }
\newlabel{tab:ctrlsys:elecreq}{{4.2}{22}{General electrical requirements}{table.4.2}{}}
\@writefile{lof}{\contentsline {figure}{\numberline {4.4}{\ignorespaces The electrical switchboard.}}{22}{figure.4.4}\protected@file@percent }
\newlabel{fig:ctrlsys:cabinet}{{4.4}{22}{The electrical switchboard}{figure.4.4}{}}
\@writefile{toc}{\contentsline {chapter}{\numberline {5}Commissioning}{23}{chapter.5}\protected@file@percent }
\@writefile{lof}{\addvspace {10\p@ }}
\@writefile{lot}{\addvspace {10\p@ }}
\@writefile{toc}{\contentsline {section}{\numberline {5.1}Low level commissioning}{23}{section.5.1}\protected@file@percent }
\@writefile{toc}{\contentsline {subsection}{\numberline {5.1.1}Integrated combiners}{23}{subsection.5.1.1}\protected@file@percent }
\@writefile{toc}{\contentsline {subsubsection}{Test bench setup.}{23}{section*.4}\protected@file@percent }
\@writefile{lof}{\contentsline {figure}{\numberline {5.1}{\ignorespaces Cabinet combining structure.}}{24}{figure.5.1}\protected@file@percent }
\newlabel{fig:ctrlsys:cabinner}{{5.1}{24}{Cabinet combining structure}{figure.5.1}{}}
\@writefile{toc}{\contentsline {subsubsection}{Results}{24}{section*.5}\protected@file@percent }
\@writefile{lot}{\contentsline {table}{\numberline {5.1}{\ignorespaces Amplitude of the coupling (A\textsubscript  {S21}).}}{25}{table.5.1}\protected@file@percent }
\newlabel{tab:ctrlsys:ampl}{{5.1}{25}{Amplitude of the coupling (A\textsubscript {S21})}{table.5.1}{}}
\@writefile{toc}{\contentsline {subsection}{\numberline {5.1.2}External combiner}{25}{subsection.5.1.2}\protected@file@percent }
\@writefile{toc}{\contentsline {subsubsection}{Test bench setup}{25}{section*.6}\protected@file@percent }
\@writefile{lof}{\contentsline {figure}{\numberline {5.2}{\ignorespaces Setup for external cabinet characterization (left); external combiner with the installed adapters (right).}}{25}{figure.5.2}\protected@file@percent }
\newlabel{fig:ctrlsys:adap}{{5.2}{25}{Setup for external cabinet characterization (left); external combiner with the installed adapters (right)}{figure.5.2}{}}
\@writefile{toc}{\contentsline {subsubsection}{Results}{25}{section*.7}\protected@file@percent }
\@writefile{lot}{\contentsline {table}{\numberline {5.2}{\ignorespaces S-matrix parameters measurement of the external combiner.}}{26}{table.5.2}\protected@file@percent }
\newlabel{tab:ctrlsys:s-matrix}{{5.2}{26}{S-matrix parameters measurement of the external combiner}{table.5.2}{}}
\@writefile{lof}{\contentsline {figure}{\numberline {5.3}{\ignorespaces S-matrix parameters measurement of the external combiner.}}{26}{figure.5.3}\protected@file@percent }
\newlabel{fig:ctrlsys:s-matrix}{{5.3}{26}{S-matrix parameters measurement of the external combiner}{figure.5.3}{}}
\@writefile{toc}{\contentsline {subsection}{\numberline {5.1.3}RF measurements calibration}{26}{subsection.5.1.3}\protected@file@percent }
\@writefile{toc}{\contentsline {subsubsection}{Test bench setup}{26}{section*.8}\protected@file@percent }
\@writefile{lof}{\contentsline {figure}{\numberline {5.4}{\ignorespaces Setup for the directional coupler characterization.}}{27}{figure.5.4}\protected@file@percent }
\newlabel{fig:ctrlsys:netlyzer}{{5.4}{27}{Setup for the directional coupler characterization}{figure.5.4}{}}
\@writefile{toc}{\contentsline {subsubsection}{Results}{27}{section*.9}\protected@file@percent }
\@writefile{lot}{\contentsline {table}{\numberline {5.3}{\ignorespaces Summary of the obtained results.}}{27}{table.5.3}\protected@file@percent }
\newlabel{tab:ctrlsys:results}{{5.3}{27}{Summary of the obtained results}{table.5.3}{}}
\@writefile{toc}{\contentsline {section}{\numberline {5.2}Interlock tests}{28}{section.5.2}\protected@file@percent }
\@writefile{toc}{\contentsline {section}{\numberline {5.3}High power commissioning}{28}{section.5.3}\protected@file@percent }
\@writefile{toc}{\contentsline {subsection}{\numberline {5.3.1}On matched load}{28}{subsection.5.3.1}\protected@file@percent }
\@writefile{toc}{\contentsline {subsubsection}{Test bench setup}{28}{section*.10}\protected@file@percent }
\@writefile{lof}{\contentsline {figure}{\numberline {5.5}{\ignorespaces Test bench setup on matched load.}}{29}{figure.5.5}\protected@file@percent }
\newlabel{fig:ctrlsys:test-bench}{{5.5}{29}{Test bench setup on matched load}{figure.5.5}{}}
\@writefile{toc}{\contentsline {subsubsection}{Results}{29}{section*.11}\protected@file@percent }
\@writefile{lof}{\contentsline {figure}{\numberline {5.6}{\ignorespaces Power meter displaying the design output power.}}{29}{figure.5.6}\protected@file@percent }
\newlabel{fig:ctrlsys:powmeter}{{5.6}{29}{Power meter displaying the design output power}{figure.5.6}{}}
\@writefile{lof}{\contentsline {figure}{\numberline {5.7}{\ignorespaces Return loss of the MYRTE amplifier (dB).}}{30}{figure.5.7}\protected@file@percent }
\newlabel{fig:ctrlsys:return-loss}{{5.7}{30}{Return loss of the MYRTE amplifier (dB)}{figure.5.7}{}}
\@writefile{lof}{\contentsline {figure}{\numberline {5.8}{\ignorespaces Efficiency of the MYRTE amplifier (\%).}}{30}{figure.5.8}\protected@file@percent }
\newlabel{fig:ctrlsys:eff}{{5.8}{30}{Efficiency of the MYRTE amplifier (\%)}{figure.5.8}{}}
\@writefile{lof}{\contentsline {figure}{\numberline {5.9}{\ignorespaces Harmonics content of the MYRTE amplifier for different forward power levels (dBc).}}{31}{figure.5.9}\protected@file@percent }
\newlabel{fig:ctrlsys:harmo}{{5.9}{31}{Harmonics content of the MYRTE amplifier for different forward power levels (dBc)}{figure.5.9}{}}
\@writefile{lof}{\contentsline {figure}{\numberline {5.10}{\ignorespaces Output bandwidth of the MYRTE amplifier at \unhbox \voidb@x \hbox {\raisebox  {.2ex}{$\scriptstyle \pm $}}{}1 MHz (dB).}}{31}{figure.5.10}\protected@file@percent }
\newlabel{fig:ctrlsys:gain}{{5.10}{31}{Output bandwidth of the MYRTE amplifier at \rpm {}1 MHz (dB)}{figure.5.10}{}}
\@writefile{lof}{\contentsline {figure}{\numberline {5.11}{\ignorespaces Gain and phase linearity of the MYRTE amplifier for the ``Reduced dynamic range'' (left) and the ``Large dynamic range'' (right).}}{32}{figure.5.11}\protected@file@percent }
\newlabel{fig:ctrlsys:phase}{{5.11}{32}{Gain and phase linearity of the MYRTE amplifier for the ``Reduced dynamic range'' (left) and the ``Large dynamic range'' (right)}{figure.5.11}{}}
\@writefile{lof}{\contentsline {figure}{\numberline {5.12}{\ignorespaces 1 dB compression point of the MYRRHA amplifier.}}{32}{figure.5.12}\protected@file@percent }
\newlabel{fig:ctrlsys:forward-power}{{5.12}{32}{1 dB compression point of the MYRRHA amplifier}{figure.5.12}{}}
\@writefile{lof}{\contentsline {figure}{\numberline {5.13}{\ignorespaces 120 kW forwards power tests: gain and phase stability over a period of 1000 seconds.}}{33}{figure.5.13}\protected@file@percent }
\newlabel{fig:ctrlsys:forwpow}{{5.13}{33}{120 kW forwards power tests: gain and phase stability over a period of 1000 seconds}{figure.5.13}{}}
\@writefile{lof}{\contentsline {figure}{\numberline {5.14}{\ignorespaces Gain (dB) and Phase (deg) stability over 1 second.}}{33}{figure.5.14}\protected@file@percent }
\newlabel{fig:ctrlsys:gaipha}{{5.14}{33}{Gain (dB) and Phase (deg) stability over 1 second}{figure.5.14}{}}
\@writefile{lof}{\contentsline {figure}{\numberline {5.15}{\ignorespaces Input and output RF voltage in pulse operation.}}{34}{figure.5.15}\protected@file@percent }
\newlabel{fig:ctrlsys:IORFvA}{{5.15}{34}{Input and output RF voltage in pulse operation}{figure.5.15}{}}
\@writefile{lof}{\contentsline {figure}{\numberline {5.16}{\ignorespaces Shape of the rise of the pulse for the scenario of Fig.~\ref  {fig:ctrlsys:IORFvA}.}}{34}{figure.5.16}\protected@file@percent }
\newlabel{fig:ctrlsys:IORFvB}{{5.16}{34}{Shape of the rise of the pulse for the scenario of Fig.~\ref {fig:ctrlsys:IORFvA}}{figure.5.16}{}}
\@writefile{lof}{\contentsline {figure}{\numberline {5.17}{\ignorespaces Return losses (dB) and directivity (dB) of the external combiner.}}{35}{figure.5.17}\protected@file@percent }
\newlabel{fig:ctrlsys:retloss-div-directivity}{{5.17}{35}{Return losses (dB) and directivity (dB) of the external combiner}{figure.5.17}{}}
\@writefile{lof}{\contentsline {figure}{\numberline {5.18}{\ignorespaces RF leaks measurements for the fundamental frequency and for the second and third harmonics at 120 kW on front and left side.}}{36}{figure.5.18}\protected@file@percent }
\newlabel{fig:ctrlsys:leaks}{{5.18}{36}{RF leaks measurements for the fundamental frequency and for the second and third harmonics at 120 kW on front and left side}{figure.5.18}{}}
\@writefile{toc}{\contentsline {subsection}{\numberline {5.3.2}On mismatched load and short-circuit}{36}{subsection.5.3.2}\protected@file@percent }
\@writefile{toc}{\contentsline {subsubsection}{Test bench setup}{36}{section*.12}\protected@file@percent }
\@writefile{lof}{\contentsline {figure}{\numberline {5.19}{\ignorespaces Test bench setup on mismatched load.}}{37}{figure.5.19}\protected@file@percent }
\newlabel{fig:ctrlsys:test-setups}{{5.19}{37}{Test bench setup on mismatched load}{figure.5.19}{}}
\@writefile{lof}{\contentsline {figure}{\numberline {5.20}{\ignorespaces Test bench setup on short-circuit.}}{37}{figure.5.20}\protected@file@percent }
\newlabel{fig:ctrlsys:test-setups-b}{{5.20}{37}{Test bench setup on short-circuit}{figure.5.20}{}}
\@writefile{toc}{\contentsline {subsubsection}{Results}{37}{section*.13}\protected@file@percent }
\@writefile{lof}{\contentsline {figure}{\numberline {5.21}{\ignorespaces Maximum forward power capability for different load conditions.}}{38}{figure.5.21}\protected@file@percent }
\newlabel{fig:ctrlsys:max-fwd-power-cap}{{5.21}{38}{Maximum forward power capability for different load conditions}{figure.5.21}{}}
\@writefile{lof}{\contentsline {figure}{\numberline {5.22}{\ignorespaces Transistors current distribution for two different phases on VSWR 2 compared to matched load.}}{38}{figure.5.22}\protected@file@percent }
\newlabel{fig:ctrlsys:current}{{5.22}{38}{Transistors current distribution for two different phases on VSWR 2 compared to matched load}{figure.5.22}{}}
\@writefile{lof}{\contentsline {figure}{\numberline {5.23}{\ignorespaces Amplifier power capability when running under mismatched conditions.}}{39}{figure.5.23}\protected@file@percent }
\newlabel{fig:ctrlsys:amp-power}{{5.23}{39}{Amplifier power capability when running under mismatched conditions}{figure.5.23}{}}
\@writefile{toc}{\contentsline {section}{\numberline {5.4}Results overview}{40}{section.5.4}\protected@file@percent }
\@writefile{lot}{\contentsline {table}{\numberline {5.4}{\ignorespaces Results overview of the RF characterization of the MYRRHA amplifier.}}{40}{table.5.4}\protected@file@percent }
\newlabel{tab:ctrlsys:overview}{{5.4}{40}{Results overview of the RF characterization of the MYRRHA amplifier}{table.5.4}{}}
\@writefile{toc}{\contentsline {section}{\numberline {5.5}Issues}{40}{section.5.5}\protected@file@percent }
\@writefile{toc}{\contentsline {subsection}{\numberline {5.5.1}Fuse failures}{40}{subsection.5.5.1}\protected@file@percent }
\@writefile{lof}{\contentsline {figure}{\numberline {5.24}{\ignorespaces 1 kW pallet showing the failing fuse.}}{41}{figure.5.24}\protected@file@percent }
\newlabel{fig:ctrlsys:fuse}{{5.24}{41}{1 kW pallet showing the failing fuse}{figure.5.24}{}}
\@writefile{lof}{\contentsline {figure}{\numberline {5.25}{\ignorespaces Spectrum during the 9 MHz responsible for blowing out the fuse.}}{41}{figure.5.25}\protected@file@percent }
\newlabel{fig:ctrlsys:spectrum}{{5.25}{41}{Spectrum during the 9 MHz responsible for blowing out the fuse}{figure.5.25}{}}
\@writefile{lof}{\contentsline {figure}{\numberline {5.26}{\ignorespaces Retrofitting of the amplifier.}}{42}{figure.5.26}\protected@file@percent }
\newlabel{fig:ctrlsys:retrofit}{{5.26}{42}{Retrofitting of the amplifier}{figure.5.26}{}}
\@writefile{toc}{\contentsline {subsection}{\numberline {5.5.2}PCB failure}{42}{subsection.5.5.2}\protected@file@percent }
\@writefile{lof}{\contentsline {figure}{\numberline {5.27}{\ignorespaces Damaged Wilkinson combiner PCB.}}{43}{figure.5.27}\protected@file@percent }
\newlabel{fig:ctrlsys:pcb}{{5.27}{43}{Damaged Wilkinson combiner PCB}{figure.5.27}{}}
\@writefile{toc}{\contentsline {subsection}{\numberline {5.5.3}Transistor failure}{43}{subsection.5.5.3}\protected@file@percent }
\@writefile{toc}{\contentsline {chapter}{\numberline {6}Conclusions}{44}{chapter.6}\protected@file@percent }
\@writefile{lof}{\addvspace {10\p@ }}
\@writefile{lot}{\addvspace {10\p@ }}
\bibstyle{alpha}
\bibdata{../../../bibliography/tdr}
\@writefile{lof}{\contentsline {figure}{\numberline {6.1}{\ignorespaces The MYRRHA solid-state amplifier for the RFQ cavity.}}{45}{figure.6.1}\protected@file@percent }
\newlabel{fig:ctrlsys:final}{{6.1}{45}{The MYRRHA solid-state amplifier for the RFQ cavity}{figure.6.1}{}}
\bibcite{AbsMARISA}{Abs}
\newlabel{LastPage}{{}{46}{}{page.46}{}}
\xdef\lastpage@lastpage{46}
\xdef\lastpage@lastpageHy{46}
